{
"1": {"Fajr":"03:51","Shuruq":"06:24","Dhuhur":"13:00","Asr":"16:27","Maghrib":"19:39","Isha":"21:58"},
"2": {"Fajr":"03:47","Shuruq":"06:21","Dhuhur":"13:00","Asr":"16:29","Maghrib":"19:41","Isha":"22:01"},
"3": {"Fajr":"03:43","Shuruq":"06:18","Dhuhur":"12:59","Asr":"16:30","Maghrib":"19:44","Isha":"22:05"},
"4": {"Fajr":"03:38","Shuruq":"06:15","Dhuhur":"12:59","Asr":"16:31","Maghrib":"19:46","Isha":"22:08"},
"5": {"Fajr":"03:34","Shuruq":"06:13","Dhuhur":"12:59","Asr":"16:32","Maghrib":"19:48","Isha":"22:12"},
"6": {"Fajr":"03:29","Shuruq":"06:10","Dhuhur":"12:58","Asr":"16:34","Maghrib":"19:51","Isha":"22:16"},
"7": {"Fajr":"03:25","Shuruq":"06:07","Dhuhur":"12:58","Asr":"16:35","Maghrib":"19:53","Isha":"22:19"},
"8": {"Fajr":"03:20","Shuruq":"06:04","Dhuhur":"12:58","Asr":"16:36","Maghrib":"19:55","Isha":"22:23"},
"9": {"Fajr":"03:15","Shuruq":"06:01","Dhuhur":"12:58","Asr":"16:38","Maghrib":"19:58","Isha":"22:27"},
"10": {"Fajr":"03:10","Shuruq":"05:58","Dhuhur":"12:57","Asr":"16:39","Maghrib":"20:00","Isha":"22:31"},
"11": {"Fajr":"03:05","Shuruq":"05:55","Dhuhur":"12:57","Asr":"16:40","Maghrib":"20:02","Isha":"22:36"},
"12": {"Fajr":"02:59","Shuruq":"05:52","Dhuhur":"12:57","Asr":"16:41","Maghrib":"20:05","Isha":"22:40"},
"13": {"Fajr":"02:49","Shuruq":"05:49","Dhuhur":"12:56","Asr":"16:42","Maghrib":"20:07","Isha":"22:44"},
"14": {"Fajr":"02:48","Shuruq":"05:47","Dhuhur":"12:56","Asr":"16:44","Maghrib":"20:09","Isha":"22:49"},
"15": {"Fajr":"02:47","Shuruq":"05:44","Dhuhur":"12:56","Asr":"16:45","Maghrib":"20:12","Isha":"22:54"},
"16": {"Fajr":"02:46","Shuruq":"05:41","Dhuhur":"12:56","Asr":"16:46","Maghrib":"20:14","Isha":"22:50"},
"17": {"Fajr":"02:44","Shuruq":"05:38","Dhuhur":"12:55","Asr":"16:47","Maghrib":"20:16","Isha":"22:51"},
"18": {"Fajr":"02:43","Shuruq":"05:35","Dhuhur":"12:55","Asr":"16:48","Maghrib":"20:19","Isha":"22:52"},
"19": {"Fajr":"02:42","Shuruq":"05:33","Dhuhur":"12:55","Asr":"16:49","Maghrib":"20:21","Isha":"22:53"},
"20": {"Fajr":"02:41","Shuruq":"05:30","Dhuhur":"12:55","Asr":"16:50","Maghrib":"20:23","Isha":"22:54"},
"21": {"Fajr":"02:40","Shuruq":"05:27","Dhuhur":"12:55","Asr":"16:52","Maghrib":"20:26","Isha":"22:55"},
"22": {"Fajr":"02:38","Shuruq":"05:24","Dhuhur":"12:54","Asr":"16:53","Maghrib":"20:28","Isha":"22:56"},
"23": {"Fajr":"02:37","Shuruq":"05:21","Dhuhur":"12:54","Asr":"16:54","Maghrib":"20:31","Isha":"22:57"},
"24": {"Fajr":"02:36","Shuruq":"05:19","Dhuhur":"12:54","Asr":"16:55","Maghrib":"20:33","Isha":"22:57"},
"25": {"Fajr":"02:35","Shuruq":"05:16","Dhuhur":"12:54","Asr":"16:56","Maghrib":"20:35","Isha":"22:58"},
"26": {"Fajr":"02:34","Shuruq":"05:13","Dhuhur":"12:54","Asr":"16:57","Maghrib":"20:38","Isha":"22:59"},
"27": {"Fajr":"02:33","Shuruq":"05:11","Dhuhur":"12:53","Asr":"16:58","Maghrib":"20:40","Isha":"23:00"},
"28": {"Fajr":"02:32","Shuruq":"05:08","Dhuhur":"12:53","Asr":"16:59","Maghrib":"20:42","Isha":"23:01"},
"29": {"Fajr":"02:30","Shuruq":"05:05","Dhuhur":"12:53","Asr":"17:00","Maghrib":"20:45","Isha":"23:02"},
"30": {"Fajr":"02:29","Shuruq":"05:03","Dhuhur":"12:53","Asr":"17:01","Maghrib":"20:47","Isha":"23:03"}
}