{
"1": {"Fajr":"02:13","Shuruq":"03:54","Dhuhur":"13:10","Asr":"17:49","Maghrib":"22:28","Isha":"23:57"},
"2": {"Fajr":"02:13","Shuruq":"03:55","Dhuhur":"13:10","Asr":"17:49","Maghrib":"22:28","Isha":"23:56"},
"3": {"Fajr":"02:13","Shuruq":"03:56","Dhuhur":"13:11","Asr":"17:49","Maghrib":"22:27","Isha":"23:56"},
"4": {"Fajr":"02:14","Shuruq":"03:57","Dhuhur":"13:11","Asr":"17:49","Maghrib":"22:26","Isha":"23:56"},
"5": {"Fajr":"02:15","Shuruq":"03:58","Dhuhur":"13:11","Asr":"17:49","Maghrib":"22:25","Isha":"23:56"},
"6": {"Fajr":"02:15","Shuruq":"03:59","Dhuhur":"13:11","Asr":"17:49","Maghrib":"22:24","Isha":"23:55"},
"7": {"Fajr":"02:16","Shuruq":"04:01","Dhuhur":"13:11","Asr":"17:49","Maghrib":"22:23","Isha":"23:55"},
"8": {"Fajr":"02:16","Shuruq":"04:02","Dhuhur":"13:11","Asr":"17:48","Maghrib":"22:22","Isha":"23:54"},
"9": {"Fajr":"02:17","Shuruq":"04:03","Dhuhur":"13:12","Asr":"17:48","Maghrib":"22:21","Isha":"23:54"},
"10": {"Fajr":"02:18","Shuruq":"04:05","Dhuhur":"13:12","Asr":"17:48","Maghrib":"22:20","Isha":"23:54"},
"11": {"Fajr":"02:18","Shuruq":"04:06","Dhuhur":"13:12","Asr":"17:47","Maghrib":"22:18","Isha":"23:53"},
"12": {"Fajr":"02:19","Shuruq":"04:08","Dhuhur":"13:12","Asr":"17:47","Maghrib":"22:17","Isha":"23:53"},
"13": {"Fajr":"02:20","Shuruq":"04:10","Dhuhur":"13:12","Asr":"17:47","Maghrib":"22:15","Isha":"23:52"},
"14": {"Fajr":"02:20","Shuruq":"04:11","Dhuhur":"13:12","Asr":"17:46","Maghrib":"22:14","Isha":"23:51"},
"15": {"Fajr":"02:21","Shuruq":"04:13","Dhuhur":"13:12","Asr":"17:46","Maghrib":"22:12","Isha":"23:51"},
"16": {"Fajr":"02:22","Shuruq":"04:15","Dhuhur":"13:13","Asr":"17:45","Maghrib":"22:11","Isha":"23:50"},
"17": {"Fajr":"02:23","Shuruq":"04:17","Dhuhur":"13:13","Asr":"17:45","Maghrib":"22:09","Isha":"23:49"},
"18": {"Fajr":"02:24","Shuruq":"04:19","Dhuhur":"13:13","Asr":"17:44","Maghrib":"22:07","Isha":"23:49"},
"19": {"Fajr":"02:24","Shuruq":"04:21","Dhuhur":"13:13","Asr":"17:44","Maghrib":"22:05","Isha":"23:48"},
"20": {"Fajr":"02:25","Shuruq":"04:23","Dhuhur":"13:13","Asr":"17:43","Maghrib":"22:04","Isha":"23:47"},
"21": {"Fajr":"02:26","Shuruq":"04:25","Dhuhur":"13:13","Asr":"17:43","Maghrib":"22:02","Isha":"23:46"},
"22": {"Fajr":"02:27","Shuruq":"04:27","Dhuhur":"13:13","Asr":"17:42","Maghrib":"22:00","Isha":"23:45"},
"23": {"Fajr":"02:28","Shuruq":"04:29","Dhuhur":"13:13","Asr":"17:41","Maghrib":"21:58","Isha":"23:45"},
"24": {"Fajr":"02:28","Shuruq":"04:31","Dhuhur":"13:13","Asr":"17:41","Maghrib":"21:56","Isha":"23:44"},
"25": {"Fajr":"02:29","Shuruq":"04:33","Dhuhur":"13:13","Asr":"17:40","Maghrib":"21:54","Isha":"23:43"},
"26": {"Fajr":"02:30","Shuruq":"04:35","Dhuhur":"13:13","Asr":"17:39","Maghrib":"21:51","Isha":"23:42"},
"27": {"Fajr":"02:31","Shuruq":"04:37","Dhuhur":"13:13","Asr":"17:38","Maghrib":"21:49","Isha":"23:41"},
"28": {"Fajr":"02:32","Shuruq":"04:39","Dhuhur":"13:13","Asr":"17:37","Maghrib":"21:47","Isha":"23:40"},
"29": {"Fajr":"02:32","Shuruq":"04:42","Dhuhur":"13:13","Asr":"17:36","Maghrib":"21:45","Isha":"23:39"},
"30": {"Fajr":"02:33","Shuruq":"04:44","Dhuhur":"13:13","Asr":"17:36","Maghrib":"21:43","Isha":"23:38"},
"31": {"Fajr":"02:34","Shuruq":"04:46","Dhuhur":"13:13","Asr":"17:35","Maghrib":"21:40","Isha":"23:37"}
}