{
"1": {"Fajr":"02:20","Shuruq":"04:32","Dhuhur":"12:59","Asr":"17:20","Maghrib":"21:25","Isha":"23:22"},
"2": {"Fajr":"02:21","Shuruq":"04:35","Dhuhur":"12:59","Asr":"17:19","Maghrib":"21:23","Isha":"23:21"},
"3": {"Fajr":"02:22","Shuruq":"04:37","Dhuhur":"12:59","Asr":"17:18","Maghrib":"21:20","Isha":"23:20"},
"4": {"Fajr":"02:23","Shuruq":"04:39","Dhuhur":"12:58","Asr":"17:17","Maghrib":"21:18","Isha":"23:19"},
"5": {"Fajr":"02:23","Shuruq":"04:42","Dhuhur":"12:58","Asr":"17:16","Maghrib":"21:16","Isha":"23:18"},
"6": {"Fajr":"02:24","Shuruq":"04:44","Dhuhur":"12:58","Asr":"17:14","Maghrib":"21:13","Isha":"23:17"},
"7": {"Fajr":"02:25","Shuruq":"04:46","Dhuhur":"12:58","Asr":"17:13","Maghrib":"21:10","Isha":"23:15"},
"8": {"Fajr":"02:26","Shuruq":"04:49","Dhuhur":"12:58","Asr":"17:12","Maghrib":"21:08","Isha":"23:14"},
"9": {"Fajr":"02:27","Shuruq":"04:51","Dhuhur":"12:58","Asr":"17:11","Maghrib":"21:05","Isha":"23:13"},
"10": {"Fajr":"02:28","Shuruq":"04:53","Dhuhur":"12:58","Asr":"17:10","Maghrib":"21:03","Isha":"23:12"},
"11": {"Fajr":"02:28","Shuruq":"04:56","Dhuhur":"12:58","Asr":"17:08","Maghrib":"21:00","Isha":"23:10"},
"12": {"Fajr":"02:29","Shuruq":"04:58","Dhuhur":"12:57","Asr":"17:07","Maghrib":"20:57","Isha":"23:09"},
"13": {"Fajr":"02:30","Shuruq":"05:00","Dhuhur":"12:57","Asr":"17:06","Maghrib":"20:55","Isha":"23:08"},
"14": {"Fajr":"02:31","Shuruq":"05:03","Dhuhur":"12:57","Asr":"17:04","Maghrib":"20:52","Isha":"23:07"},
"15": {"Fajr":"02:32","Shuruq":"05:05","Dhuhur":"12:57","Asr":"17:03","Maghrib":"20:49","Isha":"23:05"},
"16": {"Fajr":"02:32","Shuruq":"05:07","Dhuhur":"12:57","Asr":"17:02","Maghrib":"20:46","Isha":"23:04"},
"17": {"Fajr":"02:33","Shuruq":"05:10","Dhuhur":"12:56","Asr":"17:00","Maghrib":"20:44","Isha":"23:03"},
"18": {"Fajr":"02:34","Shuruq":"05:12","Dhuhur":"12:56","Asr":"16:59","Maghrib":"20:41","Isha":"23:01"},
"19": {"Fajr":"02:35","Shuruq":"05:14","Dhuhur":"12:56","Asr":"16:57","Maghrib":"20:38","Isha":"23:00"},
"20": {"Fajr":"02:35","Shuruq":"05:17","Dhuhur":"12:56","Asr":"16:56","Maghrib":"20:35","Isha":"22:59"},
"21": {"Fajr":"02:36","Shuruq":"05:19","Dhuhur":"12:56","Asr":"16:54","Maghrib":"20:32","Isha":"22:57"},
"22": {"Fajr":"02:37","Shuruq":"05:22","Dhuhur":"12:55","Asr":"16:52","Maghrib":"20:30","Isha":"22:56"},
"23": {"Fajr":"02:38","Shuruq":"05:24","Dhuhur":"12:55","Asr":"16:51","Maghrib":"20:27","Isha":"22:54"},
"24": {"Fajr":"02:39","Shuruq":"05:26","Dhuhur":"12:55","Asr":"16:49","Maghrib":"20:24","Isha":"22:53"},
"25": {"Fajr":"02:39","Shuruq":"05:29","Dhuhur":"12:55","Asr":"16:48","Maghrib":"20:21","Isha":"22:52"},
"26": {"Fajr":"02:40","Shuruq":"05:31","Dhuhur":"12:54","Asr":"16:46","Maghrib":"20:18","Isha":"22:50"},
"27": {"Fajr":"02:41","Shuruq":"05:33","Dhuhur":"12:54","Asr":"16:44","Maghrib":"20:15","Isha":"22:49"},
"28": {"Fajr":"02:41","Shuruq":"05:36","Dhuhur":"12:54","Asr":"16:43","Maghrib":"20:12","Isha":"22:47"},
"29": {"Fajr":"02:42","Shuruq":"05:38","Dhuhur":"12:53","Asr":"16:41","Maghrib":"20:09","Isha":"22:55"},
"30": {"Fajr":"02:43","Shuruq":"05:40","Dhuhur":"12:53","Asr":"16:39","Maghrib":"20:06","Isha":"22:49"},
"31": {"Fajr":"02:44","Shuruq":"05:43","Dhuhur":"12:53","Asr":"16:37","Maghrib":"20:03","Isha":"22:44"}
}