{
"1": {"Fajr":"05:38","Shuruq":"08:03","Dhuhur":"12:06","Asr":"13:44","Maghrib":"16:12","Isha":"18:26"},
"2": {"Fajr":"05:36","Shuruq":"08:00","Dhuhur":"12:06","Asr":"13:46","Maghrib":"16:14","Isha":"18:28"},
"3": {"Fajr":"05:34","Shuruq":"07:58","Dhuhur":"12:06","Asr":"13:48","Maghrib":"16:17","Isha":"18:30"},
"4": {"Fajr":"05:32","Shuruq":"07:56","Dhuhur":"12:06","Asr":"13:50","Maghrib":"16:19","Isha":"18:32"},
"5": {"Fajr":"05:30","Shuruq":"07:53","Dhuhur":"12:06","Asr":"13:52","Maghrib":"16:22","Isha":"18:35"},
"6": {"Fajr":"05:28","Shuruq":"07:51","Dhuhur":"12:06","Asr":"13:53","Maghrib":"16:25","Isha":"18:37"},
"7": {"Fajr":"05:26","Shuruq":"07:48","Dhuhur":"12:06","Asr":"13:55","Maghrib":"16:27","Isha":"18:39"},
"8": {"Fajr":"05:24","Shuruq":"07:46","Dhuhur":"12:06","Asr":"13:57","Maghrib":"16:30","Isha":"18:41"},
"9": {"Fajr":"05:22","Shuruq":"07:43","Dhuhur":"12:06","Asr":"13:59","Maghrib":"16:32","Isha":"18:43"},
"10": {"Fajr":"05:20","Shuruq":"07:41","Dhuhur":"12:06","Asr":"14:01","Maghrib":"16:35","Isha":"18:45"},
"11": {"Fajr":"05:17","Shuruq":"07:38","Dhuhur":"12:06","Asr":"14:03","Maghrib":"16:38","Isha":"18:48"},
"12": {"Fajr":"05:15","Shuruq":"07:36","Dhuhur":"12:06","Asr":"14:05","Maghrib":"16:40","Isha":"18:50"},
"13": {"Fajr":"05:13","Shuruq":"07:33","Dhuhur":"12:06","Asr":"14:07","Maghrib":"16:43","Isha":"18:52"},
"14": {"Fajr":"05:10","Shuruq":"07:30","Dhuhur":"12:06","Asr":"14:09","Maghrib":"16:45","Isha":"18:54"},
"15": {"Fajr":"05:08","Shuruq":"07:28","Dhuhur":"12:06","Asr":"14:11","Maghrib":"16:48","Isha":"18:57"},
"16": {"Fajr":"05:06","Shuruq":"07:25","Dhuhur":"12:06","Asr":"14:13","Maghrib":"16:51","Isha":"18:59"},
"17": {"Fajr":"05:03","Shuruq":"07:22","Dhuhur":"12:06","Asr":"14:14","Maghrib":"16:53","Isha":"19:01"},
"18": {"Fajr":"05:01","Shuruq":"07:20","Dhuhur":"12:06","Asr":"14:16","Maghrib":"16:56","Isha":"19:04"},
"19": {"Fajr":"04:58","Shuruq":"07:17","Dhuhur":"12:06","Asr":"14:18","Maghrib":"16:58","Isha":"19:06"},
"20": {"Fajr":"04:55","Shuruq":"07:14","Dhuhur":"12:06","Asr":"14:20","Maghrib":"17:01","Isha":"19:08"},
"21": {"Fajr":"04:53","Shuruq":"07:11","Dhuhur":"12:06","Asr":"14:22","Maghrib":"17:03","Isha":"19:11"},
"22": {"Fajr":"04:50","Shuruq":"07:09","Dhuhur":"12:06","Asr":"14:24","Maghrib":"17:06","Isha":"19:13"},
"23": {"Fajr":"04:47","Shuruq":"07:06","Dhuhur":"12:06","Asr":"14:26","Maghrib":"17:08","Isha":"19:16"},
"24": {"Fajr":"04:45","Shuruq":"07:03","Dhuhur":"12:05","Asr":"14:27","Maghrib":"17:11","Isha":"19:18"},
"25": {"Fajr":"04:42","Shuruq":"07:00","Dhuhur":"12:05","Asr":"14:29","Maghrib":"17:13","Isha":"19:21"},
"26": {"Fajr":"04:39","Shuruq":"06:57","Dhuhur":"12:05","Asr":"14:31","Maghrib":"17:16","Isha":"19:23"},
"27": {"Fajr":"04:36","Shuruq":"06:54","Dhuhur":"12:05","Asr":"14:33","Maghrib":"17:19","Isha":"19:26"},
"28": {"Fajr":"04:33","Shuruq":"06:52","Dhuhur":"12:05","Asr":"14:35","Maghrib":"17:21","Isha":"19:28"}
}