{
"1": {"Fajr":"05:38","Shuruq":"07:59","Dhuhur":"12:06","Asr":"13:48","Maghrib":"00:03","Isha":"16:13"},
"2": {"Fajr":"05:36","Shuruq":"07:56","Dhuhur":"12:06","Asr":"13:50","Maghrib":"00:03","Isha":"16:16"},
"3": {"Fajr":"05:34","Shuruq":"07:54","Dhuhur":"12:06","Asr":"13:52","Maghrib":"00:03","Isha":"16:18"},
"4": {"Fajr":"05:32","Shuruq":"07:52","Dhuhur":"12:06","Asr":"13:54","Maghrib":"00:03","Isha":"16:21"},
"5": {"Fajr":"05:30","Shuruq":"07:50","Dhuhur":"12:07","Asr":"13:56","Maghrib":"00:03","Isha":"16:23"},
"6": {"Fajr":"05:28","Shuruq":"07:47","Dhuhur":"12:07","Asr":"13:58","Maghrib":"00:03","Isha":"16:26"},
"7": {"Fajr":"05:26","Shuruq":"07:45","Dhuhur":"12:07","Asr":"14:00","Maghrib":"00:03","Isha":"16:28"},
"8": {"Fajr":"05:24","Shuruq":"07:42","Dhuhur":"12:07","Asr":"14:01","Maghrib":"00:03","Isha":"16:31"},
"9": {"Fajr":"05:22","Shuruq":"07:40","Dhuhur":"12:07","Asr":"14:03","Maghrib":"00:03","Isha":"16:33"},
"10": {"Fajr":"05:20","Shuruq":"07:38","Dhuhur":"12:07","Asr":"14:05","Maghrib":"00:03","Isha":"16:36"},
"11": {"Fajr":"05:18","Shuruq":"07:35","Dhuhur":"12:07","Asr":"14:07","Maghrib":"00:03","Isha":"16:38"},
"12": {"Fajr":"05:16","Shuruq":"07:33","Dhuhur":"12:07","Asr":"14:09","Maghrib":"00:03","Isha":"16:41"},
"13": {"Fajr":"05:14","Shuruq":"07:30","Dhuhur":"12:07","Asr":"14:11","Maghrib":"00:03","Isha":"16:43"},
"14": {"Fajr":"05:11","Shuruq":"07:28","Dhuhur":"12:07","Asr":"14:13","Maghrib":"00:03","Isha":"16:46"},
"15": {"Fajr":"05:09","Shuruq":"07:25","Dhuhur":"12:07","Asr":"14:14","Maghrib":"00:03","Isha":"16:48"},
"16": {"Fajr":"05:07","Shuruq":"07:22","Dhuhur":"12:07","Asr":"14:16","Maghrib":"00:03","Isha":"16:51"},
"17": {"Fajr":"05:04","Shuruq":"07:20","Dhuhur":"12:06","Asr":"14:18","Maghrib":"00:03","Isha":"16:53"},
"18": {"Fajr":"05:02","Shuruq":"07:17","Dhuhur":"12:06","Asr":"14:20","Maghrib":"00:03","Isha":"16:56"},
"19": {"Fajr":"04:59","Shuruq":"07:15","Dhuhur":"12:06","Asr":"14:22","Maghrib":"00:03","Isha":"16:58"},
"20": {"Fajr":"04:57","Shuruq":"07:12","Dhuhur":"12:06","Asr":"14:23","Maghrib":"00:03","Isha":"17:01"},
"21": {"Fajr":"04:54","Shuruq":"07:09","Dhuhur":"12:06","Asr":"14:25","Maghrib":"00:03","Isha":"17:03"},
"22": {"Fajr":"04:52","Shuruq":"07:07","Dhuhur":"12:06","Asr":"14:27","Maghrib":"00:03","Isha":"17:05"},
"23": {"Fajr":"04:49","Shuruq":"07:04","Dhuhur":"12:06","Asr":"14:29","Maghrib":"00:03","Isha":"17:08"},
"24": {"Fajr":"04:46","Shuruq":"07:01","Dhuhur":"12:06","Asr":"14:31","Maghrib":"00:03","Isha":"17:10"},
"25": {"Fajr":"04:44","Shuruq":"06:58","Dhuhur":"12:06","Asr":"14:32","Maghrib":"00:03","Isha":"17:13"},
"26": {"Fajr":"04:41","Shuruq":"06:56","Dhuhur":"12:05","Asr":"14:34","Maghrib":"00:03","Isha":"17:15"},
"27": {"Fajr":"04:38","Shuruq":"06:53","Dhuhur":"12:05","Asr":"14:36","Maghrib":"00:03","Isha":"17:18"},
"28": {"Fajr":"04:35","Shuruq":"06:50","Dhuhur":"12:05","Asr":"14:38","Maghrib":"00:03","Isha":"17:20"}
}