{
"1": {"Fajr":"02:01","Shuruq":"03:54","Dhuhur":"12:50","Asr":"17:24","Maghrib":"00:03","Isha":"21:47"},
"2": {"Fajr":"02:00","Shuruq":"03:52","Dhuhur":"12:50","Asr":"17:25","Maghrib":"00:03","Isha":"21:49"},
"3": {"Fajr":"02:00","Shuruq":"03:51","Dhuhur":"12:51","Asr":"17:25","Maghrib":"00:03","Isha":"21:50"},
"4": {"Fajr":"02:00","Shuruq":"03:50","Dhuhur":"12:51","Asr":"17:26","Maghrib":"00:03","Isha":"21:52"},
"5": {"Fajr":"01:59","Shuruq":"03:49","Dhuhur":"12:51","Asr":"17:27","Maghrib":"00:03","Isha":"21:53"},
"6": {"Fajr":"01:59","Shuruq":"03:48","Dhuhur":"12:51","Asr":"17:27","Maghrib":"00:03","Isha":"21:54"},
"7": {"Fajr":"01:59","Shuruq":"03:47","Dhuhur":"12:51","Asr":"17:28","Maghrib":"00:03","Isha":"21:56"},
"8": {"Fajr":"01:58","Shuruq":"03:46","Dhuhur":"12:51","Asr":"17:28","Maghrib":"00:03","Isha":"21:57"},
"9": {"Fajr":"01:58","Shuruq":"03:45","Dhuhur":"12:52","Asr":"17:29","Maghrib":"00:03","Isha":"21:58"},
"10": {"Fajr":"01:58","Shuruq":"03:44","Dhuhur":"12:52","Asr":"17:29","Maghrib":"00:03","Isha":"21:59"},
"11": {"Fajr":"01:58","Shuruq":"03:43","Dhuhur":"12:52","Asr":"17:30","Maghrib":"00:03","Isha":"22:00"},
"12": {"Fajr":"01:58","Shuruq":"03:43","Dhuhur":"12:52","Asr":"17:30","Maghrib":"00:03","Isha":"22:01"},
"13": {"Fajr":"01:57","Shuruq":"03:42","Dhuhur":"12:52","Asr":"17:30","Maghrib":"00:03","Isha":"22:02"},
"14": {"Fajr":"01:57","Shuruq":"03:42","Dhuhur":"12:53","Asr":"17:31","Maghrib":"00:03","Isha":"22:03"},
"15": {"Fajr":"01:57","Shuruq":"03:41","Dhuhur":"12:53","Asr":"17:31","Maghrib":"00:03","Isha":"22:04"},
"16": {"Fajr":"01:57","Shuruq":"03:41","Dhuhur":"12:53","Asr":"17:31","Maghrib":"00:03","Isha":"22:05"},
"17": {"Fajr":"01:57","Shuruq":"03:41","Dhuhur":"12:53","Asr":"17:32","Maghrib":"00:03","Isha":"22:05"},
"18": {"Fajr":"01:57","Shuruq":"03:40","Dhuhur":"12:53","Asr":"17:32","Maghrib":"00:03","Isha":"22:06"},
"19": {"Fajr":"01:57","Shuruq":"03:40","Dhuhur":"12:54","Asr":"17:32","Maghrib":"00:03","Isha":"22:06"},
"20": {"Fajr":"01:58","Shuruq":"03:40","Dhuhur":"12:54","Asr":"17:33","Maghrib":"00:03","Isha":"22:07"},
"21": {"Fajr":"01:58","Shuruq":"03:40","Dhuhur":"12:54","Asr":"17:33","Maghrib":"00:03","Isha":"22:07"},
"22": {"Fajr":"01:58","Shuruq":"03:41","Dhuhur":"12:54","Asr":"17:33","Maghrib":"00:03","Isha":"22:07"},
"23": {"Fajr":"01:58","Shuruq":"03:41","Dhuhur":"12:55","Asr":"17:33","Maghrib":"00:03","Isha":"22:07"},
"24": {"Fajr":"01:58","Shuruq":"03:41","Dhuhur":"12:55","Asr":"17:33","Maghrib":"00:03","Isha":"22:07"},
"25": {"Fajr":"01:59","Shuruq":"03:42","Dhuhur":"12:55","Asr":"17:34","Maghrib":"00:03","Isha":"22:07"},
"26": {"Fajr":"01:59","Shuruq":"03:42","Dhuhur":"12:55","Asr":"17:34","Maghrib":"00:03","Isha":"22:07"},
"27": {"Fajr":"01:59","Shuruq":"03:43","Dhuhur":"12:55","Asr":"17:34","Maghrib":"00:03","Isha":"22:07"},
"28": {"Fajr":"02:00","Shuruq":"03:43","Dhuhur":"12:56","Asr":"17:34","Maghrib":"00:03","Isha":"22:07"},
"29": {"Fajr":"02:00","Shuruq":"03:44","Dhuhur":"12:56","Asr":"17:34","Maghrib":"00:03","Isha":"22:06"},
"30": {"Fajr":"02:00","Shuruq":"03:45","Dhuhur":"12:56","Asr":"17:34","Maghrib":"00:03","Isha":"22:06"}
}