{
"1": {"Fajr":"02:16","Shuruq":"05:05","Dhuhur":"12:32","Asr":"16:13","Maghrib":"19:59","Isha":"22:29"},
"2": {"Fajr":"02:17","Shuruq":"05:08","Dhuhur":"12:32","Asr":"16:11","Maghrib":"19:56","Isha":"22:28"},
"3": {"Fajr":"02:18","Shuruq":"05:11","Dhuhur":"12:32","Asr":"16:09","Maghrib":"19:52","Isha":"22:26"},
"4": {"Fajr":"02:19","Shuruq":"05:14","Dhuhur":"12:31","Asr":"16:07","Maghrib":"19:48","Isha":"22:24"},
"5": {"Fajr":"02:20","Shuruq":"05:17","Dhuhur":"12:31","Asr":"16:04","Maghrib":"19:44","Isha":"22:22"},
"6": {"Fajr":"02:21","Shuruq":"05:21","Dhuhur":"12:31","Asr":"16:02","Maghrib":"19:40","Isha":"22:20"},
"7": {"Fajr":"02:22","Shuruq":"05:24","Dhuhur":"12:30","Asr":"16:00","Maghrib":"19:37","Isha":"22:18"},
"8": {"Fajr":"02:23","Shuruq":"05:27","Dhuhur":"12:30","Asr":"15:57","Maghrib":"19:33","Isha":"22:17"},
"9": {"Fajr":"02:24","Shuruq":"05:30","Dhuhur":"12:30","Asr":"15:55","Maghrib":"19:29","Isha":"22:15"},
"10": {"Fajr":"02:25","Shuruq":"05:33","Dhuhur":"12:29","Asr":"15:53","Maghrib":"19:25","Isha":"22:13"},
"11": {"Fajr":"02:26","Shuruq":"05:36","Dhuhur":"12:29","Asr":"15:50","Maghrib":"19:21","Isha":"22:11"},
"12": {"Fajr":"02:27","Shuruq":"05:39","Dhuhur":"12:28","Asr":"15:48","Maghrib":"19:18","Isha":"22:09"},
"13": {"Fajr":"02:28","Shuruq":"05:42","Dhuhur":"12:28","Asr":"15:45","Maghrib":"19:14","Isha":"22:24"},
"14": {"Fajr":"02:29","Shuruq":"05:46","Dhuhur":"12:28","Asr":"15:43","Maghrib":"19:10","Isha":"22:17"},
"15": {"Fajr":"02:27","Shuruq":"05:49","Dhuhur":"12:27","Asr":"15:40","Maghrib":"19:06","Isha":"22:10"},
"16": {"Fajr":"02:34","Shuruq":"05:52","Dhuhur":"12:27","Asr":"15:38","Maghrib":"19:02","Isha":"22:04"},
"17": {"Fajr":"02:40","Shuruq":"05:55","Dhuhur":"12:27","Asr":"15:35","Maghrib":"18:59","Isha":"21:58"},
"18": {"Fajr":"02:45","Shuruq":"05:58","Dhuhur":"12:26","Asr":"15:33","Maghrib":"18:55","Isha":"21:52"},
"19": {"Fajr":"02:51","Shuruq":"06:01","Dhuhur":"12:26","Asr":"15:30","Maghrib":"18:51","Isha":"21:46"},
"20": {"Fajr":"02:56","Shuruq":"06:04","Dhuhur":"12:26","Asr":"15:28","Maghrib":"18:47","Isha":"21:40"},
"21": {"Fajr":"03:02","Shuruq":"06:07","Dhuhur":"12:25","Asr":"15:25","Maghrib":"18:44","Isha":"21:35"},
"22": {"Fajr":"03:07","Shuruq":"06:10","Dhuhur":"12:25","Asr":"15:22","Maghrib":"18:40","Isha":"21:29"},
"23": {"Fajr":"03:12","Shuruq":"06:13","Dhuhur":"12:25","Asr":"15:20","Maghrib":"18:36","Isha":"21:24"},
"24": {"Fajr":"03:16","Shuruq":"06:16","Dhuhur":"12:24","Asr":"15:17","Maghrib":"18:32","Isha":"21:19"},
"25": {"Fajr":"03:21","Shuruq":"06:20","Dhuhur":"12:24","Asr":"15:15","Maghrib":"18:28","Isha":"21:14"},
"26": {"Fajr":"03:25","Shuruq":"06:23","Dhuhur":"12:24","Asr":"15:12","Maghrib":"18:25","Isha":"21:09"},
"27": {"Fajr":"03:30","Shuruq":"06:26","Dhuhur":"12:23","Asr":"15:09","Maghrib":"18:21","Isha":"21:04"},
"28": {"Fajr":"03:34","Shuruq":"06:29","Dhuhur":"12:23","Asr":"15:07","Maghrib":"18:17","Isha":"20:59"},
"29": {"Fajr":"03:38","Shuruq":"06:32","Dhuhur":"12:23","Asr":"15:04","Maghrib":"18:13","Isha":"20:55"},
"30": {"Fajr":"03:42","Shuruq":"06:35","Dhuhur":"12:22","Asr":"15:01","Maghrib":"18:10","Isha":"20:50"}
}