{
"1": {"Fajr":"02:06","Shuruq":"03:56","Dhuhur":"12:57","Asr":"17:32","Maghrib":"22:02","Isha":"23:38"},
"2": {"Fajr":"02:06","Shuruq":"03:55","Dhuhur":"12:58","Asr":"17:33","Maghrib":"22:04","Isha":"23:39"},
"3": {"Fajr":"02:05","Shuruq":"03:53","Dhuhur":"12:58","Asr":"17:34","Maghrib":"22:05","Isha":"23:40"},
"4": {"Fajr":"02:05","Shuruq":"03:52","Dhuhur":"12:58","Asr":"17:34","Maghrib":"22:07","Isha":"23:41"},
"5": {"Fajr":"02:04","Shuruq":"03:51","Dhuhur":"12:58","Asr":"17:35","Maghrib":"22:08","Isha":"23:41"},
"6": {"Fajr":"02:04","Shuruq":"03:50","Dhuhur":"12:58","Asr":"17:35","Maghrib":"22:10","Isha":"23:42"},
"7": {"Fajr":"02:04","Shuruq":"03:49","Dhuhur":"12:58","Asr":"17:36","Maghrib":"22:11","Isha":"23:43"},
"8": {"Fajr":"02:03","Shuruq":"03:48","Dhuhur":"12:59","Asr":"17:36","Maghrib":"22:12","Isha":"23:43"},
"9": {"Fajr":"02:03","Shuruq":"03:47","Dhuhur":"12:59","Asr":"17:37","Maghrib":"22:14","Isha":"23:44"},
"10": {"Fajr":"02:03","Shuruq":"03:46","Dhuhur":"12:59","Asr":"17:37","Maghrib":"22:15","Isha":"23:45"},
"11": {"Fajr":"02:03","Shuruq":"03:45","Dhuhur":"12:59","Asr":"17:38","Maghrib":"22:16","Isha":"23:45"},
"12": {"Fajr":"02:03","Shuruq":"03:44","Dhuhur":"12:59","Asr":"17:38","Maghrib":"22:17","Isha":"23:46"},
"13": {"Fajr":"02:03","Shuruq":"03:44","Dhuhur":"13:00","Asr":"17:39","Maghrib":"22:18","Isha":"23:46"},
"14": {"Fajr":"02:02","Shuruq":"03:43","Dhuhur":"13:00","Asr":"17:39","Maghrib":"22:19","Isha":"23:47"},
"15": {"Fajr":"02:02","Shuruq":"03:43","Dhuhur":"13:00","Asr":"17:40","Maghrib":"22:19","Isha":"23:47"},
"16": {"Fajr":"02:02","Shuruq":"03:43","Dhuhur":"13:00","Asr":"17:40","Maghrib":"22:20","Isha":"23:48"},
"17": {"Fajr":"02:02","Shuruq":"03:42","Dhuhur":"13:00","Asr":"17:40","Maghrib":"22:21","Isha":"23:48"},
"18": {"Fajr":"02:02","Shuruq":"03:42","Dhuhur":"13:01","Asr":"17:41","Maghrib":"22:21","Isha":"23:48"},
"19": {"Fajr":"02:03","Shuruq":"03:42","Dhuhur":"13:01","Asr":"17:41","Maghrib":"22:22","Isha":"23:49"},
"20": {"Fajr":"02:03","Shuruq":"03:42","Dhuhur":"13:01","Asr":"17:41","Maghrib":"22:22","Isha":"23:49"},
"21": {"Fajr":"02:03","Shuruq":"03:42","Dhuhur":"13:01","Asr":"17:41","Maghrib":"22:22","Isha":"23:49"},
"22": {"Fajr":"02:03","Shuruq":"03:42","Dhuhur":"13:01","Asr":"17:42","Maghrib":"22:23","Isha":"23:49"},
"23": {"Fajr":"02:03","Shuruq":"03:43","Dhuhur":"13:02","Asr":"17:42","Maghrib":"22:23","Isha":"23:50"},
"24": {"Fajr":"02:03","Shuruq":"03:43","Dhuhur":"13:02","Asr":"17:42","Maghrib":"22:23","Isha":"23:50"},
"25": {"Fajr":"02:04","Shuruq":"03:43","Dhuhur":"13:02","Asr":"17:42","Maghrib":"22:23","Isha":"23:50"},
"26": {"Fajr":"02:04","Shuruq":"03:44","Dhuhur":"13:02","Asr":"17:42","Maghrib":"22:23","Isha":"23:50"},
"27": {"Fajr":"02:04","Shuruq":"03:44","Dhuhur":"13:03","Asr":"17:42","Maghrib":"22:22","Isha":"23:50"},
"28": {"Fajr":"02:05","Shuruq":"03:45","Dhuhur":"13:03","Asr":"17:42","Maghrib":"22:22","Isha":"23:50"},
"29": {"Fajr":"02:05","Shuruq":"03:46","Dhuhur":"13:03","Asr":"17:42","Maghrib":"22:22","Isha":"23:50"},
"30": {"Fajr":"02:06","Shuruq":"03:47","Dhuhur":"13:03","Asr":"17:42","Maghrib":"22:21","Isha":"23:50"}
}