{
"1": {"Fajr":"02:32","Shuruq":"05:03","Dhuhur":"12:57","Asr":"17:06","Maghrib":"20:55","Isha":"23:09"},
"2": {"Fajr":"02:31","Shuruq":"05:00","Dhuhur":"12:57","Asr":"17:07","Maghrib":"20:57","Isha":"23:10"},
"3": {"Fajr":"02:29","Shuruq":"04:57","Dhuhur":"12:57","Asr":"17:08","Maghrib":"20:59","Isha":"23:11"},
"4": {"Fajr":"02:28","Shuruq":"04:55","Dhuhur":"12:57","Asr":"17:09","Maghrib":"21:02","Isha":"23:12"},
"5": {"Fajr":"02:27","Shuruq":"04:52","Dhuhur":"12:56","Asr":"17:10","Maghrib":"21:04","Isha":"23:13"},
"6": {"Fajr":"02:26","Shuruq":"04:50","Dhuhur":"12:56","Asr":"17:11","Maghrib":"21:07","Isha":"23:14"},
"7": {"Fajr":"02:25","Shuruq":"04:47","Dhuhur":"12:56","Asr":"17:12","Maghrib":"21:09","Isha":"23:15"},
"8": {"Fajr":"02:24","Shuruq":"04:45","Dhuhur":"12:56","Asr":"17:13","Maghrib":"21:11","Isha":"23:16"},
"9": {"Fajr":"02:23","Shuruq":"04:42","Dhuhur":"12:56","Asr":"17:14","Maghrib":"21:14","Isha":"23:17"},
"10": {"Fajr":"02:22","Shuruq":"04:40","Dhuhur":"12:56","Asr":"17:15","Maghrib":"21:16","Isha":"23:18"},
"11": {"Fajr":"02:21","Shuruq":"04:37","Dhuhur":"12:56","Asr":"17:16","Maghrib":"21:18","Isha":"23:19"},
"12": {"Fajr":"02:20","Shuruq":"04:35","Dhuhur":"12:56","Asr":"17:17","Maghrib":"21:21","Isha":"23:20"},
"13": {"Fajr":"02:20","Shuruq":"04:33","Dhuhur":"12:56","Asr":"17:18","Maghrib":"21:23","Isha":"23:21"},
"14": {"Fajr":"02:19","Shuruq":"04:30","Dhuhur":"12:56","Asr":"17:19","Maghrib":"21:25","Isha":"23:22"},
"15": {"Fajr":"02:18","Shuruq":"04:28","Dhuhur":"12:56","Asr":"17:20","Maghrib":"21:27","Isha":"23:23"},
"16": {"Fajr":"02:17","Shuruq":"04:26","Dhuhur":"12:56","Asr":"17:20","Maghrib":"21:30","Isha":"23:24"},
"17": {"Fajr":"02:16","Shuruq":"04:24","Dhuhur":"12:56","Asr":"17:21","Maghrib":"21:32","Isha":"23:25"},
"18": {"Fajr":"02:15","Shuruq":"04:21","Dhuhur":"12:56","Asr":"17:22","Maghrib":"21:34","Isha":"23:26"},
"19": {"Fajr":"02:14","Shuruq":"04:19","Dhuhur":"12:56","Asr":"17:23","Maghrib":"21:36","Isha":"23:26"},
"20": {"Fajr":"02:14","Shuruq":"04:17","Dhuhur":"12:56","Asr":"17:24","Maghrib":"21:39","Isha":"23:27"},
"21": {"Fajr":"02:13","Shuruq":"04:15","Dhuhur":"12:56","Asr":"17:25","Maghrib":"21:41","Isha":"23:28"},
"22": {"Fajr":"02:12","Shuruq":"04:13","Dhuhur":"12:56","Asr":"17:25","Maghrib":"21:43","Isha":"23:29"},
"23": {"Fajr":"02:11","Shuruq":"04:11","Dhuhur":"12:56","Asr":"17:26","Maghrib":"21:45","Isha":"23:30"},
"24": {"Fajr":"02:11","Shuruq":"04:09","Dhuhur":"12:56","Asr":"17:27","Maghrib":"21:47","Isha":"23:31"},
"25": {"Fajr":"02:10","Shuruq":"04:07","Dhuhur":"12:56","Asr":"17:28","Maghrib":"21:49","Isha":"23:32"},
"26": {"Fajr":"02:09","Shuruq":"04:06","Dhuhur":"12:57","Asr":"17:28","Maghrib":"21:51","Isha":"23:33"},
"27": {"Fajr":"02:09","Shuruq":"04:04","Dhuhur":"12:57","Asr":"17:29","Maghrib":"21:53","Isha":"23:34"},
"28": {"Fajr":"02:08","Shuruq":"04:02","Dhuhur":"12:57","Asr":"17:30","Maghrib":"21:55","Isha":"23:35"},
"29": {"Fajr":"02:08","Shuruq":"04:01","Dhuhur":"12:57","Asr":"17:31","Maghrib":"21:57","Isha":"23:36"},
"30": {"Fajr":"02:07","Shuruq":"03:59","Dhuhur":"12:57","Asr":"17:31","Maghrib":"21:58","Isha":"23:37"},
"31": {"Fajr":"02:07","Shuruq":"03:57","Dhuhur":"12:57","Asr":"17:32","Maghrib":"22:00","Isha":"23:37"}
}