{
"1": {"Fajr":"04:39","Shuruq":"06:55","Dhuhur":"12:12","Asr":"14:45","Maghrib":"17:32","Isha":"19:37"},
"2": {"Fajr":"04:36","Shuruq":"06:53","Dhuhur":"12:12","Asr":"14:47","Maghrib":"17:34","Isha":"19:40"},
"3": {"Fajr":"04:33","Shuruq":"06:50","Dhuhur":"12:12","Asr":"14:48","Maghrib":"17:36","Isha":"19:42"},
"4": {"Fajr":"04:30","Shuruq":"06:47","Dhuhur":"12:11","Asr":"14:50","Maghrib":"17:39","Isha":"19:45"},
"5": {"Fajr":"04:27","Shuruq":"06:44","Dhuhur":"12:11","Asr":"14:52","Maghrib":"17:41","Isha":"19:47"},
"6": {"Fajr":"04:24","Shuruq":"06:41","Dhuhur":"12:11","Asr":"14:53","Maghrib":"17:44","Isha":"19:50"},
"7": {"Fajr":"04:20","Shuruq":"06:38","Dhuhur":"12:11","Asr":"14:55","Maghrib":"17:46","Isha":"19:52"},
"8": {"Fajr":"04:17","Shuruq":"06:35","Dhuhur":"12:10","Asr":"14:57","Maghrib":"17:49","Isha":"19:55"},
"9": {"Fajr":"04:14","Shuruq":"06:32","Dhuhur":"12:10","Asr":"14:58","Maghrib":"17:51","Isha":"19:58"},
"10": {"Fajr":"04:11","Shuruq":"06:30","Dhuhur":"12:10","Asr":"15:00","Maghrib":"17:53","Isha":"20:00"},
"11": {"Fajr":"04:08","Shuruq":"06:27","Dhuhur":"12:10","Asr":"15:02","Maghrib":"17:56","Isha":"20:03"},
"12": {"Fajr":"04:04","Shuruq":"06:24","Dhuhur":"12:09","Asr":"15:03","Maghrib":"17:58","Isha":"20:06"},
"13": {"Fajr":"04:01","Shuruq":"06:21","Dhuhur":"12:09","Asr":"15:05","Maghrib":"18:01","Isha":"20:08"},
"14": {"Fajr":"03:58","Shuruq":"06:18","Dhuhur":"12:09","Asr":"15:06","Maghrib":"18:03","Isha":"20:11"},
"15": {"Fajr":"03:54","Shuruq":"06:15","Dhuhur":"12:09","Asr":"15:08","Maghrib":"18:05","Isha":"20:14"},
"16": {"Fajr":"03:51","Shuruq":"06:12","Dhuhur":"12:08","Asr":"15:09","Maghrib":"18:08","Isha":"20:17"},
"17": {"Fajr":"03:47","Shuruq":"06:09","Dhuhur":"12:08","Asr":"15:11","Maghrib":"18:10","Isha":"20:20"},
"18": {"Fajr":"03:44","Shuruq":"06:06","Dhuhur":"12:08","Asr":"15:12","Maghrib":"18:13","Isha":"20:23"},
"19": {"Fajr":"03:40","Shuruq":"06:03","Dhuhur":"12:07","Asr":"15:14","Maghrib":"18:15","Isha":"20:25"},
"20": {"Fajr":"03:36","Shuruq":"06:00","Dhuhur":"12:07","Asr":"15:15","Maghrib":"18:17","Isha":"20:28"},
"21": {"Fajr":"03:33","Shuruq":"05:57","Dhuhur":"12:07","Asr":"15:17","Maghrib":"18:20","Isha":"20:31"},
"22": {"Fajr":"03:29","Shuruq":"05:54","Dhuhur":"12:06","Asr":"15:18","Maghrib":"18:22","Isha":"20:34"},
"23": {"Fajr":"03:25","Shuruq":"05:51","Dhuhur":"12:06","Asr":"15:20","Maghrib":"18:24","Isha":"20:38"},
"24": {"Fajr":"03:21","Shuruq":"05:48","Dhuhur":"12:06","Asr":"15:21","Maghrib":"18:27","Isha":"20:41"},
"25": {"Fajr":"03:17","Shuruq":"05:45","Dhuhur":"12:06","Asr":"15:23","Maghrib":"18:29","Isha":"20:44"},
"26": {"Fajr":"04:18","Shuruq":"06:45","Dhuhur":"13:06","Asr":"16:23","Maghrib":"19:29","Isha":"21:44"},
"27": {"Fajr":"04:14","Shuruq":"06:42","Dhuhur":"13:05","Asr":"16:24","Maghrib":"19:31","Isha":"21:47"},
"28": {"Fajr":"04:10","Shuruq":"06:40","Dhuhur":"13:05","Asr":"16:25","Maghrib":"19:34","Isha":"21:50"},
"29": {"Fajr":"04:06","Shuruq":"06:37","Dhuhur":"13:05","Asr":"16:27","Maghrib":"19:36","Isha":"21:53"},
"30": {"Fajr":"04:01","Shuruq":"06:34","Dhuhur":"13:04","Asr":"16:28","Maghrib":"19:39","Isha":"21:57"},
"31": {"Fajr":"03:57","Shuruq":"06:31","Dhuhur":"13:04","Asr":"16:30","Maghrib":"19:41","Isha":"22:00"}
}