{
"1": {"Fajr":"01:54","Shuruq":"03:45","Dhuhur":"12:46","Asr":"17:14","Maghrib":"21:46","Isha":"23:24"},
"2": {"Fajr":"01:55","Shuruq":"03:49","Dhuhur":"12:46","Asr":"17:12","Maghrib":"21:43","Isha":"23:22"},
"3": {"Fajr":"01:56","Shuruq":"03:52","Dhuhur":"12:46","Asr":"17:11","Maghrib":"21:40","Isha":"23:21"},
"4": {"Fajr":"01:57","Shuruq":"03:55","Dhuhur":"12:46","Asr":"17:10","Maghrib":"21:36","Isha":"23:20"},
"5": {"Fajr":"01:59","Shuruq":"03:58","Dhuhur":"12:46","Asr":"17:09","Maghrib":"21:33","Isha":"23:18"},
"6": {"Fajr":"02:00","Shuruq":"04:01","Dhuhur":"12:45","Asr":"17:07","Maghrib":"21:30","Isha":"23:17"},
"7": {"Fajr":"02:01","Shuruq":"04:04","Dhuhur":"12:45","Asr":"17:06","Maghrib":"21:26","Isha":"23:15"},
"8": {"Fajr":"02:02","Shuruq":"04:07","Dhuhur":"12:45","Asr":"17:04","Maghrib":"21:23","Isha":"23:14"},
"9": {"Fajr":"02:03","Shuruq":"04:10","Dhuhur":"12:45","Asr":"17:03","Maghrib":"21:20","Isha":"23:12"},
"10": {"Fajr":"02:04","Shuruq":"04:13","Dhuhur":"12:45","Asr":"17:01","Maghrib":"21:16","Isha":"23:10"},
"11": {"Fajr":"02:05","Shuruq":"04:16","Dhuhur":"12:45","Asr":"17:00","Maghrib":"21:13","Isha":"23:09"},
"12": {"Fajr":"02:06","Shuruq":"04:20","Dhuhur":"12:45","Asr":"16:58","Maghrib":"21:10","Isha":"23:07"},
"13": {"Fajr":"02:07","Shuruq":"04:23","Dhuhur":"12:45","Asr":"16:57","Maghrib":"21:06","Isha":"23:06"},
"14": {"Fajr":"02:08","Shuruq":"04:26","Dhuhur":"12:44","Asr":"16:55","Maghrib":"21:03","Isha":"23:04"},
"15": {"Fajr":"02:10","Shuruq":"04:29","Dhuhur":"12:44","Asr":"16:54","Maghrib":"20:59","Isha":"23:03"},
"16": {"Fajr":"02:11","Shuruq":"04:32","Dhuhur":"12:44","Asr":"16:52","Maghrib":"20:56","Isha":"23:01"},
"17": {"Fajr":"02:12","Shuruq":"04:35","Dhuhur":"12:44","Asr":"16:50","Maghrib":"20:53","Isha":"22:59"},
"18": {"Fajr":"02:13","Shuruq":"04:38","Dhuhur":"12:44","Asr":"16:49","Maghrib":"20:49","Isha":"22:58"},
"19": {"Fajr":"02:14","Shuruq":"04:41","Dhuhur":"12:43","Asr":"16:47","Maghrib":"20:46","Isha":"22:56"},
"20": {"Fajr":"02:15","Shuruq":"04:44","Dhuhur":"12:43","Asr":"16:45","Maghrib":"20:42","Isha":"22:54"},
"21": {"Fajr":"02:16","Shuruq":"04:47","Dhuhur":"12:43","Asr":"16:43","Maghrib":"20:39","Isha":"22:53"},
"22": {"Fajr":"02:17","Shuruq":"04:50","Dhuhur":"12:43","Asr":"16:41","Maghrib":"20:35","Isha":"22:51"},
"23": {"Fajr":"02:18","Shuruq":"04:53","Dhuhur":"12:42","Asr":"16:40","Maghrib":"20:32","Isha":"22:49"},
"24": {"Fajr":"02:19","Shuruq":"04:56","Dhuhur":"12:42","Asr":"16:38","Maghrib":"20:28","Isha":"22:48"},
"25": {"Fajr":"02:20","Shuruq":"04:59","Dhuhur":"12:42","Asr":"16:36","Maghrib":"20:25","Isha":"22:46"},
"26": {"Fajr":"02:21","Shuruq":"05:02","Dhuhur":"12:42","Asr":"16:34","Maghrib":"20:21","Isha":"22:44"},
"27": {"Fajr":"02:22","Shuruq":"05:05","Dhuhur":"12:41","Asr":"16:32","Maghrib":"20:18","Isha":"22:43"},
"28": {"Fajr":"02:23","Shuruq":"05:08","Dhuhur":"12:41","Asr":"16:30","Maghrib":"20:14","Isha":"22:41"},
"29": {"Fajr":"02:24","Shuruq":"05:10","Dhuhur":"12:41","Asr":"16:28","Maghrib":"20:11","Isha":"22:39"},
"30": {"Fajr":"02:25","Shuruq":"05:13","Dhuhur":"12:40","Asr":"16:26","Maghrib":"20:07","Isha":"22:38"}
}