{
"1": {"Fajr":"02:29","Shuruq":"04:56","Dhuhur":"12:56","Asr":"17:07","Maghrib":"21:00","Isha":"23:11"},
"2": {"Fajr":"02:27","Shuruq":"04:53","Dhuhur":"12:56","Asr":"17:08","Maghrib":"21:03","Isha":"23:12"},
"3": {"Fajr":"02:26","Shuruq":"04:50","Dhuhur":"12:56","Asr":"17:09","Maghrib":"21:05","Isha":"23:13"},
"4": {"Fajr":"02:25","Shuruq":"04:47","Dhuhur":"12:56","Asr":"17:10","Maghrib":"21:08","Isha":"23:14"},
"5": {"Fajr":"02:24","Shuruq":"04:45","Dhuhur":"12:56","Asr":"17:11","Maghrib":"21:10","Isha":"23:15"},
"6": {"Fajr":"02:23","Shuruq":"04:42","Dhuhur":"12:56","Asr":"17:12","Maghrib":"21:13","Isha":"23:16"},
"7": {"Fajr":"02:22","Shuruq":"04:39","Dhuhur":"12:55","Asr":"17:13","Maghrib":"21:15","Isha":"23:17"},
"8": {"Fajr":"02:21","Shuruq":"04:37","Dhuhur":"12:55","Asr":"17:14","Maghrib":"21:18","Isha":"23:18"},
"9": {"Fajr":"02:20","Shuruq":"04:34","Dhuhur":"12:55","Asr":"17:15","Maghrib":"21:20","Isha":"23:19"},
"10": {"Fajr":"02:19","Shuruq":"04:31","Dhuhur":"12:55","Asr":"17:16","Maghrib":"21:23","Isha":"23:20"},
"11": {"Fajr":"02:18","Shuruq":"04:29","Dhuhur":"12:55","Asr":"17:17","Maghrib":"21:25","Isha":"23:21"},
"12": {"Fajr":"02:17","Shuruq":"04:26","Dhuhur":"12:55","Asr":"17:18","Maghrib":"21:28","Isha":"23:22"},
"13": {"Fajr":"02:16","Shuruq":"04:24","Dhuhur":"12:55","Asr":"17:19","Maghrib":"21:30","Isha":"23:23"},
"14": {"Fajr":"02:15","Shuruq":"04:21","Dhuhur":"12:55","Asr":"17:20","Maghrib":"21:33","Isha":"23:24"},
"15": {"Fajr":"02:14","Shuruq":"04:19","Dhuhur":"12:55","Asr":"17:21","Maghrib":"21:35","Isha":"23:26"},
"16": {"Fajr":"02:13","Shuruq":"04:16","Dhuhur":"12:55","Asr":"17:22","Maghrib":"21:38","Isha":"23:27"},
"17": {"Fajr":"02:12","Shuruq":"04:14","Dhuhur":"12:55","Asr":"17:23","Maghrib":"21:40","Isha":"23:28"},
"18": {"Fajr":"02:11","Shuruq":"04:12","Dhuhur":"12:55","Asr":"17:23","Maghrib":"21:43","Isha":"23:29"},
"19": {"Fajr":"02:10","Shuruq":"04:09","Dhuhur":"12:55","Asr":"17:24","Maghrib":"21:45","Isha":"23:30"},
"20": {"Fajr":"02:09","Shuruq":"04:07","Dhuhur":"12:55","Asr":"17:25","Maghrib":"21:47","Isha":"23:31"},
"21": {"Fajr":"02:08","Shuruq":"04:05","Dhuhur":"12:55","Asr":"17:26","Maghrib":"21:50","Isha":"23:32"},
"22": {"Fajr":"02:08","Shuruq":"04:03","Dhuhur":"12:55","Asr":"17:27","Maghrib":"21:52","Isha":"23:33"},
"23": {"Fajr":"02:07","Shuruq":"04:01","Dhuhur":"12:56","Asr":"17:28","Maghrib":"21:54","Isha":"23:34"},
"24": {"Fajr":"02:06","Shuruq":"03:58","Dhuhur":"12:56","Asr":"17:28","Maghrib":"21:56","Isha":"23:35"},
"25": {"Fajr":"02:05","Shuruq":"03:56","Dhuhur":"12:56","Asr":"17:29","Maghrib":"21:59","Isha":"23:36"},
"26": {"Fajr":"02:05","Shuruq":"03:54","Dhuhur":"12:56","Asr":"17:30","Maghrib":"22:01","Isha":"23:37"},
"27": {"Fajr":"02:04","Shuruq":"03:52","Dhuhur":"12:56","Asr":"17:31","Maghrib":"22:03","Isha":"23:38"},
"28": {"Fajr":"02:03","Shuruq":"03:51","Dhuhur":"12:56","Asr":"17:32","Maghrib":"22:05","Isha":"23:39"},
"29": {"Fajr":"02:03","Shuruq":"03:49","Dhuhur":"12:56","Asr":"17:32","Maghrib":"22:07","Isha":"23:40"},
"30": {"Fajr":"02:02","Shuruq":"03:47","Dhuhur":"12:56","Asr":"17:33","Maghrib":"22:09","Isha":"23:41"},
"31": {"Fajr":"02:01","Shuruq":"03:45","Dhuhur":"12:56","Asr":"17:34","Maghrib":"22:11","Isha":"23:42"}
}