{
"1": {"Fajr":"03:34","Shuruq":"06:18","Dhuhur":"12:56","Asr":"16:22","Maghrib":"19:37","Isha":"22:06"},
"2": {"Fajr":"03:29","Shuruq":"06:15","Dhuhur":"12:56","Asr":"16:23","Maghrib":"19:40","Isha":"22:10"},
"3": {"Fajr":"03:24","Shuruq":"06:12","Dhuhur":"12:55","Asr":"16:25","Maghrib":"19:43","Isha":"22:14"},
"4": {"Fajr":"03:19","Shuruq":"06:09","Dhuhur":"12:55","Asr":"16:26","Maghrib":"19:45","Isha":"22:19"},
"5": {"Fajr":"03:13","Shuruq":"06:06","Dhuhur":"12:55","Asr":"16:28","Maghrib":"19:48","Isha":"22:23"},
"6": {"Fajr":"03:08","Shuruq":"06:03","Dhuhur":"12:54","Asr":"16:29","Maghrib":"19:50","Isha":"22:27"},
"7": {"Fajr":"03:03","Shuruq":"05:59","Dhuhur":"12:54","Asr":"16:30","Maghrib":"19:53","Isha":"22:32"},
"8": {"Fajr":"02:57","Shuruq":"05:56","Dhuhur":"12:54","Asr":"16:32","Maghrib":"19:55","Isha":"22:36"},
"9": {"Fajr":"02:49","Shuruq":"05:53","Dhuhur":"12:54","Asr":"16:33","Maghrib":"19:58","Isha":"22:41"},
"10": {"Fajr":"02:48","Shuruq":"05:50","Dhuhur":"12:53","Asr":"16:34","Maghrib":"20:00","Isha":"22:46"},
"11": {"Fajr":"02:47","Shuruq":"05:47","Dhuhur":"12:53","Asr":"16:36","Maghrib":"20:03","Isha":"22:51"},
"12": {"Fajr":"02:45","Shuruq":"05:44","Dhuhur":"12:53","Asr":"16:37","Maghrib":"20:05","Isha":"22:45"},
"13": {"Fajr":"02:44","Shuruq":"05:41","Dhuhur":"12:53","Asr":"16:38","Maghrib":"20:08","Isha":"22:46"},
"14": {"Fajr":"02:43","Shuruq":"05:38","Dhuhur":"12:52","Asr":"16:40","Maghrib":"20:10","Isha":"22:47"},
"15": {"Fajr":"02:41","Shuruq":"05:35","Dhuhur":"12:52","Asr":"16:41","Maghrib":"20:13","Isha":"22:48"},
"16": {"Fajr":"02:40","Shuruq":"05:32","Dhuhur":"12:52","Asr":"16:42","Maghrib":"20:15","Isha":"22:49"},
"17": {"Fajr":"02:39","Shuruq":"05:29","Dhuhur":"12:52","Asr":"16:43","Maghrib":"20:18","Isha":"22:50"},
"18": {"Fajr":"02:37","Shuruq":"05:26","Dhuhur":"12:51","Asr":"16:45","Maghrib":"20:21","Isha":"22:51"},
"19": {"Fajr":"02:36","Shuruq":"05:23","Dhuhur":"12:51","Asr":"16:46","Maghrib":"20:23","Isha":"22:52"},
"20": {"Fajr":"02:35","Shuruq":"05:20","Dhuhur":"12:51","Asr":"16:47","Maghrib":"20:26","Isha":"22:53"},
"21": {"Fajr":"02:33","Shuruq":"05:17","Dhuhur":"12:51","Asr":"16:48","Maghrib":"20:28","Isha":"22:54"},
"22": {"Fajr":"02:32","Shuruq":"05:14","Dhuhur":"12:51","Asr":"16:50","Maghrib":"20:31","Isha":"22:55"},
"23": {"Fajr":"02:31","Shuruq":"05:11","Dhuhur":"12:50","Asr":"16:51","Maghrib":"20:33","Isha":"22:56"},
"24": {"Fajr":"02:30","Shuruq":"05:08","Dhuhur":"12:50","Asr":"16:52","Maghrib":"20:36","Isha":"22:57"},
"25": {"Fajr":"02:28","Shuruq":"05:05","Dhuhur":"12:50","Asr":"16:53","Maghrib":"20:39","Isha":"22:58"},
"26": {"Fajr":"02:27","Shuruq":"05:02","Dhuhur":"12:50","Asr":"16:54","Maghrib":"20:41","Isha":"22:59"},
"27": {"Fajr":"02:26","Shuruq":"04:59","Dhuhur":"12:50","Asr":"16:55","Maghrib":"20:44","Isha":"23:00"},
"28": {"Fajr":"02:25","Shuruq":"04:56","Dhuhur":"12:49","Asr":"16:56","Maghrib":"20:46","Isha":"23:01"},
"29": {"Fajr":"02:24","Shuruq":"04:54","Dhuhur":"12:49","Asr":"16:58","Maghrib":"20:49","Isha":"23:02"},
"30": {"Fajr":"02:22","Shuruq":"04:51","Dhuhur":"12:49","Asr":"16:59","Maghrib":"20:51","Isha":"23:03"}
}