{
"1": {"Fajr":"06:11","Shuruq":"08:59","Dhuhur":"11:56","Asr":"12:47","Maghrib":"14:54","Isha":"17:32"},
"2": {"Fajr":"06:11","Shuruq":"08:59","Dhuhur":"11:56","Asr":"12:48","Maghrib":"14:55","Isha":"17:33"},
"3": {"Fajr":"06:11","Shuruq":"08:58","Dhuhur":"11:56","Asr":"12:49","Maghrib":"14:57","Isha":"17:34"},
"4": {"Fajr":"06:10","Shuruq":"08:57","Dhuhur":"11:57","Asr":"12:50","Maghrib":"14:59","Isha":"17:35"},
"5": {"Fajr":"06:10","Shuruq":"08:56","Dhuhur":"11:57","Asr":"12:52","Maghrib":"15:01","Isha":"17:36"},
"6": {"Fajr":"06:09","Shuruq":"08:56","Dhuhur":"11:58","Asr":"12:53","Maghrib":"15:02","Isha":"17:38"},
"7": {"Fajr":"06:09","Shuruq":"08:54","Dhuhur":"11:58","Asr":"12:54","Maghrib":"15:04","Isha":"17:39"},
"8": {"Fajr":"06:08","Shuruq":"08:53","Dhuhur":"11:59","Asr":"12:56","Maghrib":"15:06","Isha":"17:41"},
"9": {"Fajr":"06:08","Shuruq":"08:52","Dhuhur":"11:59","Asr":"12:57","Maghrib":"15:08","Isha":"17:42"},
"10": {"Fajr":"06:07","Shuruq":"08:51","Dhuhur":"11:59","Asr":"12:59","Maghrib":"15:10","Isha":"17:44"},
"11": {"Fajr":"06:06","Shuruq":"08:50","Dhuhur":"12:00","Asr":"13:00","Maghrib":"15:13","Isha":"17:45"},
"12": {"Fajr":"06:05","Shuruq":"08:48","Dhuhur":"12:00","Asr":"13:02","Maghrib":"15:15","Isha":"17:47"},
"13": {"Fajr":"06:05","Shuruq":"08:47","Dhuhur":"12:01","Asr":"13:03","Maghrib":"15:17","Isha":"17:48"},
"14": {"Fajr":"06:04","Shuruq":"08:45","Dhuhur":"12:01","Asr":"13:05","Maghrib":"15:19","Isha":"17:50"},
"15": {"Fajr":"06:03","Shuruq":"08:44","Dhuhur":"12:01","Asr":"13:07","Maghrib":"15:22","Isha":"17:52"},
"16": {"Fajr":"06:02","Shuruq":"08:42","Dhuhur":"12:02","Asr":"13:08","Maghrib":"15:24","Isha":"17:53"},
"17": {"Fajr":"06:01","Shuruq":"08:40","Dhuhur":"12:02","Asr":"13:10","Maghrib":"15:26","Isha":"17:55"},
"18": {"Fajr":"05:59","Shuruq":"08:38","Dhuhur":"12:02","Asr":"13:12","Maghrib":"15:29","Isha":"17:57"},
"19": {"Fajr":"05:58","Shuruq":"08:36","Dhuhur":"12:03","Asr":"13:14","Maghrib":"15:31","Isha":"17:59"},
"20": {"Fajr":"05:57","Shuruq":"08:35","Dhuhur":"12:03","Asr":"13:15","Maghrib":"15:34","Isha":"18:01"},
"21": {"Fajr":"05:56","Shuruq":"08:33","Dhuhur":"12:03","Asr":"13:17","Maghrib":"15:36","Isha":"18:03"},
"22": {"Fajr":"05:54","Shuruq":"08:31","Dhuhur":"12:03","Asr":"13:19","Maghrib":"15:39","Isha":"18:04"},
"23": {"Fajr":"05:53","Shuruq":"08:29","Dhuhur":"12:04","Asr":"13:21","Maghrib":"15:42","Isha":"18:06"},
"24": {"Fajr":"05:51","Shuruq":"08:26","Dhuhur":"12:04","Asr":"13:23","Maghrib":"15:44","Isha":"18:08"},
"25": {"Fajr":"05:50","Shuruq":"08:24","Dhuhur":"12:04","Asr":"13:25","Maghrib":"15:47","Isha":"18:10"},
"26": {"Fajr":"05:48","Shuruq":"08:22","Dhuhur":"12:04","Asr":"13:27","Maghrib":"15:50","Isha":"18:12"},
"27": {"Fajr":"05:47","Shuruq":"08:20","Dhuhur":"12:05","Asr":"13:28","Maghrib":"15:52","Isha":"18:14"},
"28": {"Fajr":"05:45","Shuruq":"08:18","Dhuhur":"12:05","Asr":"13:30","Maghrib":"15:55","Isha":"18:17"},
"29": {"Fajr":"05:43","Shuruq":"08:15","Dhuhur":"12:05","Asr":"13:32","Maghrib":"15:58","Isha":"18:19"},
"30": {"Fajr":"05:41","Shuruq":"08:13","Dhuhur":"12:05","Asr":"13:34","Maghrib":"16:00","Isha":"18:21"},
"31": {"Fajr":"05:40","Shuruq":"08:10","Dhuhur":"12:05","Asr":"13:36","Maghrib":"16:03","Isha":"18:23"}
}