{
"1": {"Fajr":"02:21","Shuruq":"04:48","Dhuhur":"12:49","Asr":"17:00","Maghrib":"20:54","Isha":"23:04"},
"2": {"Fajr":"02:20","Shuruq":"04:45","Dhuhur":"12:49","Asr":"17:01","Maghrib":"20:57","Isha":"23:05"},
"3": {"Fajr":"02:19","Shuruq":"04:42","Dhuhur":"12:49","Asr":"17:02","Maghrib":"20:59","Isha":"23:06"},
"4": {"Fajr":"02:18","Shuruq":"04:39","Dhuhur":"12:49","Asr":"17:03","Maghrib":"21:02","Isha":"23:07"},
"5": {"Fajr":"02:17","Shuruq":"04:37","Dhuhur":"12:49","Asr":"17:04","Maghrib":"21:04","Isha":"23:08"},
"6": {"Fajr":"02:16","Shuruq":"04:34","Dhuhur":"12:49","Asr":"17:05","Maghrib":"21:07","Isha":"23:09"},
"7": {"Fajr":"02:14","Shuruq":"04:31","Dhuhur":"12:48","Asr":"17:06","Maghrib":"21:10","Isha":"23:10"},
"8": {"Fajr":"02:13","Shuruq":"04:29","Dhuhur":"12:48","Asr":"17:07","Maghrib":"21:12","Isha":"23:12"},
"9": {"Fajr":"02:12","Shuruq":"04:26","Dhuhur":"12:48","Asr":"17:08","Maghrib":"21:15","Isha":"23:13"},
"10": {"Fajr":"02:11","Shuruq":"04:23","Dhuhur":"12:48","Asr":"17:09","Maghrib":"21:17","Isha":"23:14"},
"11": {"Fajr":"02:10","Shuruq":"04:21","Dhuhur":"12:48","Asr":"17:10","Maghrib":"21:20","Isha":"23:15"},
"12": {"Fajr":"02:09","Shuruq":"04:18","Dhuhur":"12:48","Asr":"17:11","Maghrib":"21:22","Isha":"23:16"},
"13": {"Fajr":"02:08","Shuruq":"04:15","Dhuhur":"12:48","Asr":"17:12","Maghrib":"21:25","Isha":"23:17"},
"14": {"Fajr":"02:07","Shuruq":"04:13","Dhuhur":"12:48","Asr":"17:13","Maghrib":"21:27","Isha":"23:18"},
"15": {"Fajr":"02:06","Shuruq":"04:10","Dhuhur":"12:48","Asr":"17:14","Maghrib":"21:30","Isha":"23:19"},
"16": {"Fajr":"02:05","Shuruq":"04:08","Dhuhur":"12:48","Asr":"17:15","Maghrib":"21:32","Isha":"23:20"},
"17": {"Fajr":"02:04","Shuruq":"04:06","Dhuhur":"12:48","Asr":"17:16","Maghrib":"21:35","Isha":"23:21"},
"18": {"Fajr":"02:03","Shuruq":"04:03","Dhuhur":"12:48","Asr":"17:17","Maghrib":"21:37","Isha":"23:22"},
"19": {"Fajr":"02:03","Shuruq":"04:01","Dhuhur":"12:48","Asr":"17:18","Maghrib":"21:39","Isha":"23:23"},
"20": {"Fajr":"02:02","Shuruq":"03:59","Dhuhur":"12:48","Asr":"17:18","Maghrib":"21:42","Isha":"23:25"},
"21": {"Fajr":"02:01","Shuruq":"03:56","Dhuhur":"12:48","Asr":"17:19","Maghrib":"21:44","Isha":"23:26"},
"22": {"Fajr":"02:00","Shuruq":"03:54","Dhuhur":"12:48","Asr":"17:20","Maghrib":"21:46","Isha":"23:27"},
"23": {"Fajr":"01:59","Shuruq":"03:52","Dhuhur":"12:49","Asr":"17:21","Maghrib":"21:49","Isha":"23:28"},
"24": {"Fajr":"01:58","Shuruq":"03:50","Dhuhur":"12:49","Asr":"17:22","Maghrib":"21:51","Isha":"23:29"},
"25": {"Fajr":"01:58","Shuruq":"03:48","Dhuhur":"12:49","Asr":"17:23","Maghrib":"21:53","Isha":"23:30"},
"26": {"Fajr":"01:57","Shuruq":"03:46","Dhuhur":"12:49","Asr":"17:23","Maghrib":"21:55","Isha":"23:31"},
"27": {"Fajr":"01:56","Shuruq":"03:44","Dhuhur":"12:49","Asr":"17:24","Maghrib":"21:58","Isha":"23:32"},
"28": {"Fajr":"01:56","Shuruq":"03:42","Dhuhur":"12:49","Asr":"17:25","Maghrib":"22:00","Isha":"23:33"},
"29": {"Fajr":"01:55","Shuruq":"03:40","Dhuhur":"12:49","Asr":"17:26","Maghrib":"22:02","Isha":"23:34"},
"30": {"Fajr":"01:54","Shuruq":"03:38","Dhuhur":"12:49","Asr":"17:26","Maghrib":"22:04","Isha":"23:35"},
"31": {"Fajr":"01:54","Shuruq":"03:36","Dhuhur":"12:49","Asr":"17:27","Maghrib":"22:06","Isha":"23:36"}
}