{
"1": {"Fajr":"04:08","Shuruq":"06:34","Dhuhur":"13:08","Asr":"16:36","Maghrib":"19:45","Isha":"21:58"},
"2": {"Fajr":"04:04","Shuruq":"06:31","Dhuhur":"13:08","Asr":"16:38","Maghrib":"19:48","Isha":"22:01"},
"3": {"Fajr":"04:00","Shuruq":"06:28","Dhuhur":"13:07","Asr":"16:39","Maghrib":"19:50","Isha":"22:04"},
"4": {"Fajr":"03:56","Shuruq":"06:25","Dhuhur":"13:07","Asr":"16:40","Maghrib":"19:52","Isha":"22:07"},
"5": {"Fajr":"03:52","Shuruq":"06:23","Dhuhur":"13:07","Asr":"16:41","Maghrib":"19:54","Isha":"22:11"},
"6": {"Fajr":"03:48","Shuruq":"06:20","Dhuhur":"13:06","Asr":"16:42","Maghrib":"19:56","Isha":"22:14"},
"7": {"Fajr":"03:44","Shuruq":"06:17","Dhuhur":"13:06","Asr":"16:44","Maghrib":"19:59","Isha":"22:17"},
"8": {"Fajr":"03:39","Shuruq":"06:14","Dhuhur":"13:06","Asr":"16:45","Maghrib":"20:01","Isha":"22:21"},
"9": {"Fajr":"03:35","Shuruq":"06:12","Dhuhur":"13:06","Asr":"16:46","Maghrib":"20:03","Isha":"22:25"},
"10": {"Fajr":"03:31","Shuruq":"06:09","Dhuhur":"13:05","Asr":"16:47","Maghrib":"20:05","Isha":"22:28"},
"11": {"Fajr":"03:26","Shuruq":"06:06","Dhuhur":"13:05","Asr":"16:48","Maghrib":"20:07","Isha":"22:32"},
"12": {"Fajr":"03:21","Shuruq":"06:03","Dhuhur":"13:05","Asr":"16:49","Maghrib":"20:10","Isha":"22:36"},
"13": {"Fajr":"03:17","Shuruq":"06:01","Dhuhur":"13:05","Asr":"16:50","Maghrib":"20:12","Isha":"22:40"},
"14": {"Fajr":"03:12","Shuruq":"05:58","Dhuhur":"13:04","Asr":"16:52","Maghrib":"20:14","Isha":"22:44"},
"15": {"Fajr":"03:07","Shuruq":"05:55","Dhuhur":"13:04","Asr":"16:53","Maghrib":"20:16","Isha":"22:48"},
"16": {"Fajr":"02:55","Shuruq":"05:52","Dhuhur":"13:04","Asr":"16:54","Maghrib":"20:19","Isha":"22:52"},
"17": {"Fajr":"02:54","Shuruq":"05:50","Dhuhur":"13:04","Asr":"16:55","Maghrib":"20:21","Isha":"22:56"},
"18": {"Fajr":"02:53","Shuruq":"05:47","Dhuhur":"13:03","Asr":"16:56","Maghrib":"20:23","Isha":"23:01"},
"19": {"Fajr":"02:52","Shuruq":"05:44","Dhuhur":"13:03","Asr":"16:57","Maghrib":"20:25","Isha":"22:59"},
"20": {"Fajr":"02:50","Shuruq":"05:42","Dhuhur":"13:03","Asr":"16:58","Maghrib":"20:27","Isha":"23:00"},
"21": {"Fajr":"02:49","Shuruq":"05:39","Dhuhur":"13:03","Asr":"16:59","Maghrib":"20:30","Isha":"23:01"},
"22": {"Fajr":"02:48","Shuruq":"05:37","Dhuhur":"13:02","Asr":"17:00","Maghrib":"20:32","Isha":"23:02"},
"23": {"Fajr":"02:47","Shuruq":"05:34","Dhuhur":"13:02","Asr":"17:01","Maghrib":"20:34","Isha":"23:03"},
"24": {"Fajr":"02:46","Shuruq":"05:31","Dhuhur":"13:02","Asr":"17:02","Maghrib":"20:36","Isha":"23:03"},
"25": {"Fajr":"02:45","Shuruq":"05:29","Dhuhur":"13:02","Asr":"17:03","Maghrib":"20:39","Isha":"23:04"},
"26": {"Fajr":"02:44","Shuruq":"05:26","Dhuhur":"13:02","Asr":"17:04","Maghrib":"20:41","Isha":"23:05"},
"27": {"Fajr":"02:43","Shuruq":"05:24","Dhuhur":"13:02","Asr":"17:05","Maghrib":"20:43","Isha":"23:06"},
"28": {"Fajr":"02:42","Shuruq":"05:21","Dhuhur":"13:01","Asr":"17:06","Maghrib":"20:45","Isha":"23:07"},
"29": {"Fajr":"02:40","Shuruq":"05:19","Dhuhur":"13:01","Asr":"17:07","Maghrib":"20:47","Isha":"23:08"},
"30": {"Fajr":"02:39","Shuruq":"05:16","Dhuhur":"13:01","Asr":"17:08","Maghrib":"20:50","Isha":"23:09"}
}