{
"1": {"Fajr":"02:38","Shuruq":"05:14","Dhuhur":"13:01","Asr":"17:09","Maghrib":"20:52","Isha":"23:10"},
"2": {"Fajr":"02:37","Shuruq":"05:11","Dhuhur":"13:01","Asr":"17:10","Maghrib":"20:54","Isha":"23:11"},
"3": {"Fajr":"02:36","Shuruq":"05:09","Dhuhur":"13:01","Asr":"17:11","Maghrib":"20:56","Isha":"23:11"},
"4": {"Fajr":"02:35","Shuruq":"05:06","Dhuhur":"13:01","Asr":"17:12","Maghrib":"20:58","Isha":"23:12"},
"5": {"Fajr":"02:34","Shuruq":"05:04","Dhuhur":"13:01","Asr":"17:13","Maghrib":"21:01","Isha":"23:13"},
"6": {"Fajr":"02:33","Shuruq":"05:02","Dhuhur":"13:00","Asr":"17:14","Maghrib":"21:03","Isha":"23:14"},
"7": {"Fajr":"02:32","Shuruq":"04:59","Dhuhur":"13:00","Asr":"17:15","Maghrib":"21:05","Isha":"23:15"},
"8": {"Fajr":"02:32","Shuruq":"04:57","Dhuhur":"13:00","Asr":"17:15","Maghrib":"21:07","Isha":"23:16"},
"9": {"Fajr":"02:31","Shuruq":"04:55","Dhuhur":"13:00","Asr":"17:16","Maghrib":"21:09","Isha":"23:17"},
"10": {"Fajr":"02:30","Shuruq":"04:52","Dhuhur":"13:00","Asr":"17:17","Maghrib":"21:11","Isha":"23:18"},
"11": {"Fajr":"02:29","Shuruq":"04:50","Dhuhur":"13:00","Asr":"17:18","Maghrib":"21:14","Isha":"23:19"},
"12": {"Fajr":"02:28","Shuruq":"04:48","Dhuhur":"13:00","Asr":"17:19","Maghrib":"21:16","Isha":"23:20"},
"13": {"Fajr":"02:27","Shuruq":"04:46","Dhuhur":"13:00","Asr":"17:20","Maghrib":"21:18","Isha":"23:21"},
"14": {"Fajr":"02:26","Shuruq":"04:44","Dhuhur":"13:00","Asr":"17:21","Maghrib":"21:20","Isha":"23:21"},
"15": {"Fajr":"02:26","Shuruq":"04:42","Dhuhur":"13:00","Asr":"17:21","Maghrib":"21:22","Isha":"23:22"},
"16": {"Fajr":"02:25","Shuruq":"04:40","Dhuhur":"13:00","Asr":"17:22","Maghrib":"21:24","Isha":"23:23"},
"17": {"Fajr":"02:24","Shuruq":"04:38","Dhuhur":"13:00","Asr":"17:23","Maghrib":"21:26","Isha":"23:24"},
"18": {"Fajr":"02:23","Shuruq":"04:36","Dhuhur":"13:00","Asr":"17:24","Maghrib":"21:28","Isha":"23:25"},
"19": {"Fajr":"02:22","Shuruq":"04:34","Dhuhur":"13:00","Asr":"17:25","Maghrib":"21:30","Isha":"23:26"},
"20": {"Fajr":"02:22","Shuruq":"04:32","Dhuhur":"13:00","Asr":"17:25","Maghrib":"21:32","Isha":"23:27"},
"21": {"Fajr":"02:21","Shuruq":"04:30","Dhuhur":"13:00","Asr":"17:26","Maghrib":"21:34","Isha":"23:28"},
"22": {"Fajr":"02:20","Shuruq":"04:28","Dhuhur":"13:00","Asr":"17:27","Maghrib":"21:36","Isha":"23:29"},
"23": {"Fajr":"02:20","Shuruq":"04:26","Dhuhur":"13:00","Asr":"17:27","Maghrib":"21:38","Isha":"23:30"},
"24": {"Fajr":"02:19","Shuruq":"04:25","Dhuhur":"13:01","Asr":"17:28","Maghrib":"21:40","Isha":"23:30"},
"25": {"Fajr":"02:19","Shuruq":"04:23","Dhuhur":"13:01","Asr":"17:29","Maghrib":"21:42","Isha":"23:31"},
"26": {"Fajr":"02:18","Shuruq":"04:21","Dhuhur":"13:01","Asr":"17:30","Maghrib":"21:43","Isha":"23:32"},
"27": {"Fajr":"02:17","Shuruq":"04:20","Dhuhur":"13:01","Asr":"17:30","Maghrib":"21:45","Isha":"23:33"},
"28": {"Fajr":"02:17","Shuruq":"04:18","Dhuhur":"13:01","Asr":"17:31","Maghrib":"21:47","Isha":"23:34"},
"29": {"Fajr":"02:16","Shuruq":"04:17","Dhuhur":"13:01","Asr":"17:32","Maghrib":"21:48","Isha":"23:34"},
"30": {"Fajr":"02:16","Shuruq":"04:15","Dhuhur":"13:01","Asr":"17:32","Maghrib":"21:50","Isha":"23:35"},
"31": {"Fajr":"02:15","Shuruq":"04:14","Dhuhur":"13:01","Asr":"17:33","Maghrib":"21:52","Isha":"23:36"}
}