{
"1": {"Fajr":"02:37","Shuruq":"05:15","Dhuhur":"12:58","Asr":"17:06","Maghrib":"20:45","Isha":"23:05"},
"2": {"Fajr":"02:36","Shuruq":"05:13","Dhuhur":"12:58","Asr":"17:07","Maghrib":"20:48","Isha":"23:06"},
"3": {"Fajr":"02:35","Shuruq":"05:10","Dhuhur":"12:58","Asr":"17:07","Maghrib":"20:50","Isha":"23:07"},
"4": {"Fajr":"02:34","Shuruq":"05:08","Dhuhur":"12:58","Asr":"17:08","Maghrib":"20:52","Isha":"23:08"},
"5": {"Fajr":"02:33","Shuruq":"05:06","Dhuhur":"12:58","Asr":"17:09","Maghrib":"20:54","Isha":"23:09"},
"6": {"Fajr":"02:33","Shuruq":"05:03","Dhuhur":"12:58","Asr":"17:10","Maghrib":"20:56","Isha":"23:10"},
"7": {"Fajr":"02:32","Shuruq":"05:01","Dhuhur":"12:58","Asr":"17:11","Maghrib":"20:58","Isha":"23:11"},
"8": {"Fajr":"02:31","Shuruq":"04:59","Dhuhur":"12:58","Asr":"17:12","Maghrib":"21:00","Isha":"23:11"},
"9": {"Fajr":"02:30","Shuruq":"04:57","Dhuhur":"12:58","Asr":"17:13","Maghrib":"21:02","Isha":"23:12"},
"10": {"Fajr":"02:29","Shuruq":"04:55","Dhuhur":"12:58","Asr":"17:13","Maghrib":"21:04","Isha":"23:13"},
"11": {"Fajr":"02:28","Shuruq":"04:52","Dhuhur":"12:58","Asr":"17:14","Maghrib":"21:06","Isha":"23:14"},
"12": {"Fajr":"02:27","Shuruq":"04:50","Dhuhur":"12:58","Asr":"17:15","Maghrib":"21:08","Isha":"23:15"},
"13": {"Fajr":"02:27","Shuruq":"04:48","Dhuhur":"12:58","Asr":"17:16","Maghrib":"21:10","Isha":"23:16"},
"14": {"Fajr":"02:26","Shuruq":"04:46","Dhuhur":"12:58","Asr":"17:17","Maghrib":"21:12","Isha":"23:17"},
"15": {"Fajr":"02:25","Shuruq":"04:44","Dhuhur":"12:58","Asr":"17:17","Maghrib":"21:14","Isha":"23:18"},
"16": {"Fajr":"02:24","Shuruq":"04:42","Dhuhur":"12:58","Asr":"17:18","Maghrib":"21:16","Isha":"23:18"},
"17": {"Fajr":"02:23","Shuruq":"04:40","Dhuhur":"12:58","Asr":"17:19","Maghrib":"21:18","Isha":"23:19"},
"18": {"Fajr":"02:23","Shuruq":"04:39","Dhuhur":"12:58","Asr":"17:20","Maghrib":"21:20","Isha":"23:20"},
"19": {"Fajr":"02:22","Shuruq":"04:37","Dhuhur":"12:58","Asr":"17:20","Maghrib":"21:22","Isha":"23:21"},
"20": {"Fajr":"02:21","Shuruq":"04:35","Dhuhur":"12:58","Asr":"17:21","Maghrib":"21:24","Isha":"23:22"},
"21": {"Fajr":"02:21","Shuruq":"04:33","Dhuhur":"12:58","Asr":"17:22","Maghrib":"21:26","Isha":"23:23"},
"22": {"Fajr":"02:20","Shuruq":"04:32","Dhuhur":"12:58","Asr":"17:23","Maghrib":"21:27","Isha":"23:23"},
"23": {"Fajr":"02:20","Shuruq":"04:30","Dhuhur":"12:58","Asr":"17:23","Maghrib":"21:29","Isha":"23:24"},
"24": {"Fajr":"02:19","Shuruq":"04:28","Dhuhur":"12:58","Asr":"17:24","Maghrib":"21:31","Isha":"23:25"},
"25": {"Fajr":"02:18","Shuruq":"04:27","Dhuhur":"12:58","Asr":"17:25","Maghrib":"21:33","Isha":"23:26"},
"26": {"Fajr":"02:18","Shuruq":"04:25","Dhuhur":"12:58","Asr":"17:25","Maghrib":"21:34","Isha":"23:27"},
"27": {"Fajr":"02:17","Shuruq":"04:24","Dhuhur":"12:58","Asr":"17:26","Maghrib":"21:36","Isha":"23:27"},
"28": {"Fajr":"02:17","Shuruq":"04:22","Dhuhur":"12:58","Asr":"17:27","Maghrib":"21:38","Isha":"23:28"},
"29": {"Fajr":"02:16","Shuruq":"04:21","Dhuhur":"12:59","Asr":"17:27","Maghrib":"21:39","Isha":"23:29"},
"30": {"Fajr":"02:16","Shuruq":"04:20","Dhuhur":"12:59","Asr":"17:28","Maghrib":"21:41","Isha":"23:30"},
"31": {"Fajr":"02:16","Shuruq":"04:18","Dhuhur":"12:59","Asr":"17:28","Maghrib":"21:42","Isha":"23:31"}
}