{
"1": {"Fajr":"04:45","Shuruq":"06:53","Dhuhur":"12:14","Asr":"14:53","Maghrib":"17:37","Isha":"19:34"},
"2": {"Fajr":"04:43","Shuruq":"06:50","Dhuhur":"12:13","Asr":"14:55","Maghrib":"17:39","Isha":"19:36"},
"3": {"Fajr":"04:40","Shuruq":"06:48","Dhuhur":"12:13","Asr":"14:56","Maghrib":"17:42","Isha":"19:39"},
"4": {"Fajr":"04:37","Shuruq":"06:45","Dhuhur":"12:13","Asr":"14:58","Maghrib":"17:44","Isha":"19:41"},
"5": {"Fajr":"04:34","Shuruq":"06:42","Dhuhur":"12:13","Asr":"14:59","Maghrib":"17:46","Isha":"19:43"},
"6": {"Fajr":"04:32","Shuruq":"06:40","Dhuhur":"12:12","Asr":"15:01","Maghrib":"17:48","Isha":"19:46"},
"7": {"Fajr":"04:29","Shuruq":"06:37","Dhuhur":"12:12","Asr":"15:02","Maghrib":"17:50","Isha":"19:48"},
"8": {"Fajr":"04:26","Shuruq":"06:34","Dhuhur":"12:12","Asr":"15:04","Maghrib":"17:53","Isha":"19:50"},
"9": {"Fajr":"04:23","Shuruq":"06:32","Dhuhur":"12:12","Asr":"15:05","Maghrib":"17:55","Isha":"19:53"},
"10": {"Fajr":"04:20","Shuruq":"06:29","Dhuhur":"12:11","Asr":"15:07","Maghrib":"17:57","Isha":"19:55"},
"11": {"Fajr":"04:17","Shuruq":"06:26","Dhuhur":"12:11","Asr":"15:08","Maghrib":"17:59","Isha":"19:57"},
"12": {"Fajr":"04:14","Shuruq":"06:24","Dhuhur":"12:11","Asr":"15:10","Maghrib":"18:01","Isha":"20:00"},
"13": {"Fajr":"04:11","Shuruq":"06:21","Dhuhur":"12:11","Asr":"15:11","Maghrib":"18:03","Isha":"20:02"},
"14": {"Fajr":"04:08","Shuruq":"06:18","Dhuhur":"12:10","Asr":"15:12","Maghrib":"18:06","Isha":"20:05"},
"15": {"Fajr":"04:05","Shuruq":"06:16","Dhuhur":"12:10","Asr":"15:14","Maghrib":"18:08","Isha":"20:07"},
"16": {"Fajr":"04:02","Shuruq":"06:13","Dhuhur":"12:10","Asr":"15:15","Maghrib":"18:10","Isha":"20:09"},
"17": {"Fajr":"03:59","Shuruq":"06:10","Dhuhur":"12:10","Asr":"15:17","Maghrib":"18:12","Isha":"20:12"},
"18": {"Fajr":"03:56","Shuruq":"06:08","Dhuhur":"12:09","Asr":"15:18","Maghrib":"18:14","Isha":"20:14"},
"19": {"Fajr":"03:53","Shuruq":"06:05","Dhuhur":"12:09","Asr":"15:19","Maghrib":"18:16","Isha":"20:17"},
"20": {"Fajr":"03:49","Shuruq":"06:02","Dhuhur":"12:09","Asr":"15:21","Maghrib":"18:18","Isha":"20:20"},
"21": {"Fajr":"03:46","Shuruq":"05:59","Dhuhur":"12:08","Asr":"15:22","Maghrib":"18:21","Isha":"20:22"},
"22": {"Fajr":"03:43","Shuruq":"05:57","Dhuhur":"12:08","Asr":"15:23","Maghrib":"18:23","Isha":"20:25"},
"23": {"Fajr":"03:39","Shuruq":"05:54","Dhuhur":"12:08","Asr":"15:25","Maghrib":"18:25","Isha":"20:27"},
"24": {"Fajr":"03:36","Shuruq":"05:51","Dhuhur":"12:07","Asr":"15:26","Maghrib":"18:27","Isha":"20:30"},
"25": {"Fajr":"03:33","Shuruq":"05:49","Dhuhur":"12:07","Asr":"15:27","Maghrib":"18:29","Isha":"20:33"},
"26": {"Fajr":"04:33","Shuruq":"06:49","Dhuhur":"13:07","Asr":"16:27","Maghrib":"19:29","Isha":"21:33"},
"27": {"Fajr":"04:29","Shuruq":"06:46","Dhuhur":"13:07","Asr":"16:28","Maghrib":"19:31","Isha":"21:36"},
"28": {"Fajr":"04:26","Shuruq":"06:43","Dhuhur":"13:07","Asr":"16:30","Maghrib":"19:33","Isha":"21:38"},
"29": {"Fajr":"04:22","Shuruq":"06:40","Dhuhur":"13:06","Asr":"16:31","Maghrib":"19:35","Isha":"21:41"},
"30": {"Fajr":"04:19","Shuruq":"06:38","Dhuhur":"13:06","Asr":"16:32","Maghrib":"19:38","Isha":"21:44"},
"31": {"Fajr":"04:15","Shuruq":"06:35","Dhuhur":"13:06","Asr":"16:33","Maghrib":"19:40","Isha":"21:47"}
}