{
"1": {"Fajr":"04:56","Shuruq":"07:02","Dhuhur":"12:51","Asr":"15:49","Maghrib":"18:41","Isha":"20:39"},
"2": {"Fajr":"04:58","Shuruq":"07:04","Dhuhur":"12:51","Asr":"15:47","Maghrib":"18:39","Isha":"20:36"},
"3": {"Fajr":"05:01","Shuruq":"07:06","Dhuhur":"12:51","Asr":"15:45","Maghrib":"18:36","Isha":"20:33"},
"4": {"Fajr":"05:03","Shuruq":"07:08","Dhuhur":"12:50","Asr":"15:43","Maghrib":"18:33","Isha":"20:30"},
"5": {"Fajr":"05:05","Shuruq":"07:10","Dhuhur":"12:50","Asr":"15:41","Maghrib":"18:31","Isha":"20:27"},
"6": {"Fajr":"05:07","Shuruq":"07:12","Dhuhur":"12:50","Asr":"15:39","Maghrib":"18:28","Isha":"20:24"},
"7": {"Fajr":"05:10","Shuruq":"07:14","Dhuhur":"12:49","Asr":"15:37","Maghrib":"18:25","Isha":"20:21"},
"8": {"Fajr":"05:12","Shuruq":"07:16","Dhuhur":"12:49","Asr":"15:35","Maghrib":"18:23","Isha":"20:19"},
"9": {"Fajr":"05:14","Shuruq":"07:18","Dhuhur":"12:49","Asr":"15:33","Maghrib":"18:20","Isha":"20:16"},
"10": {"Fajr":"05:16","Shuruq":"07:21","Dhuhur":"12:48","Asr":"15:31","Maghrib":"18:17","Isha":"20:13"},
"11": {"Fajr":"05:18","Shuruq":"07:23","Dhuhur":"12:48","Asr":"15:29","Maghrib":"18:15","Isha":"20:10"},
"12": {"Fajr":"05:20","Shuruq":"07:25","Dhuhur":"12:48","Asr":"15:27","Maghrib":"18:12","Isha":"20:08"},
"13": {"Fajr":"05:23","Shuruq":"07:27","Dhuhur":"12:48","Asr":"15:25","Maghrib":"18:09","Isha":"20:05"},
"14": {"Fajr":"05:25","Shuruq":"07:29","Dhuhur":"12:47","Asr":"15:23","Maghrib":"18:07","Isha":"20:03"},
"15": {"Fajr":"05:27","Shuruq":"07:31","Dhuhur":"12:47","Asr":"15:21","Maghrib":"18:04","Isha":"20:00"},
"16": {"Fajr":"05:29","Shuruq":"07:33","Dhuhur":"12:47","Asr":"15:19","Maghrib":"18:02","Isha":"19:58"},
"17": {"Fajr":"05:31","Shuruq":"07:35","Dhuhur":"12:47","Asr":"15:17","Maghrib":"17:59","Isha":"19:55"},
"18": {"Fajr":"05:33","Shuruq":"07:38","Dhuhur":"12:47","Asr":"15:15","Maghrib":"17:57","Isha":"19:53"},
"19": {"Fajr":"05:35","Shuruq":"07:40","Dhuhur":"12:46","Asr":"15:13","Maghrib":"17:54","Isha":"19:50"},
"20": {"Fajr":"05:37","Shuruq":"07:42","Dhuhur":"12:46","Asr":"15:11","Maghrib":"17:51","Isha":"19:48"},
"21": {"Fajr":"05:39","Shuruq":"07:44","Dhuhur":"12:46","Asr":"15:09","Maghrib":"17:49","Isha":"19:45"},
"22": {"Fajr":"05:41","Shuruq":"07:46","Dhuhur":"12:46","Asr":"15:07","Maghrib":"17:46","Isha":"19:43"},
"23": {"Fajr":"05:43","Shuruq":"07:48","Dhuhur":"12:46","Asr":"15:05","Maghrib":"17:44","Isha":"19:41"},
"24": {"Fajr":"05:45","Shuruq":"07:51","Dhuhur":"12:46","Asr":"15:03","Maghrib":"17:42","Isha":"19:38"},
"25": {"Fajr":"05:47","Shuruq":"07:53","Dhuhur":"12:45","Asr":"15:02","Maghrib":"17:39","Isha":"19:36"},
"26": {"Fajr":"05:49","Shuruq":"07:55","Dhuhur":"12:45","Asr":"15:00","Maghrib":"17:37","Isha":"19:34"},
"27": {"Fajr":"05:51","Shuruq":"07:57","Dhuhur":"12:45","Asr":"14:58","Maghrib":"17:34","Isha":"19:32"},
"28": {"Fajr":"05:53","Shuruq":"07:59","Dhuhur":"12:45","Asr":"14:56","Maghrib":"17:32","Isha":"19:30"},
"29": {"Fajr":"04:57","Shuruq":"07:04","Dhuhur":"11:45","Asr":"13:52","Maghrib":"16:27","Isha":"18:25"},
"30": {"Fajr":"04:59","Shuruq":"07:06","Dhuhur":"11:45","Asr":"13:51","Maghrib":"16:25","Isha":"18:23"},
"31": {"Fajr":"05:01","Shuruq":"07:08","Dhuhur":"11:45","Asr":"13:49","Maghrib":"16:23","Isha":"18:21"}
}