{
"1": {"Fajr":"03:54","Shuruq":"06:25","Dhuhur":"13:00","Asr":"16:28","Maghrib":"19:38","Isha":"21:55"},
"2": {"Fajr":"03:50","Shuruq":"06:22","Dhuhur":"13:00","Asr":"16:29","Maghrib":"19:41","Isha":"21:58"},
"3": {"Fajr":"03:46","Shuruq":"06:19","Dhuhur":"12:59","Asr":"16:30","Maghrib":"19:43","Isha":"22:02"},
"4": {"Fajr":"03:42","Shuruq":"06:16","Dhuhur":"12:59","Asr":"16:32","Maghrib":"19:45","Isha":"22:05"},
"5": {"Fajr":"03:37","Shuruq":"06:13","Dhuhur":"12:59","Asr":"16:33","Maghrib":"19:48","Isha":"22:09"},
"6": {"Fajr":"03:33","Shuruq":"06:10","Dhuhur":"12:58","Asr":"16:34","Maghrib":"19:50","Isha":"22:12"},
"7": {"Fajr":"03:29","Shuruq":"06:08","Dhuhur":"12:58","Asr":"16:35","Maghrib":"19:52","Isha":"22:16"},
"8": {"Fajr":"03:24","Shuruq":"06:05","Dhuhur":"12:58","Asr":"16:36","Maghrib":"19:54","Isha":"22:20"},
"9": {"Fajr":"03:19","Shuruq":"06:02","Dhuhur":"12:58","Asr":"16:38","Maghrib":"19:57","Isha":"22:24"},
"10": {"Fajr":"03:14","Shuruq":"05:59","Dhuhur":"12:57","Asr":"16:39","Maghrib":"19:59","Isha":"22:28"},
"11": {"Fajr":"03:09","Shuruq":"05:56","Dhuhur":"12:57","Asr":"16:40","Maghrib":"20:01","Isha":"22:32"},
"12": {"Fajr":"03:04","Shuruq":"05:53","Dhuhur":"12:57","Asr":"16:41","Maghrib":"20:04","Isha":"22:36"},
"13": {"Fajr":"02:59","Shuruq":"05:51","Dhuhur":"12:57","Asr":"16:42","Maghrib":"20:06","Isha":"22:40"},
"14": {"Fajr":"02:49","Shuruq":"05:48","Dhuhur":"12:56","Asr":"16:44","Maghrib":"20:08","Isha":"22:44"},
"15": {"Fajr":"02:47","Shuruq":"05:45","Dhuhur":"12:56","Asr":"16:45","Maghrib":"20:11","Isha":"22:49"},
"16": {"Fajr":"02:46","Shuruq":"05:42","Dhuhur":"12:56","Asr":"16:46","Maghrib":"20:13","Isha":"22:54"},
"17": {"Fajr":"02:45","Shuruq":"05:39","Dhuhur":"12:56","Asr":"16:47","Maghrib":"20:15","Isha":"22:51"},
"18": {"Fajr":"02:44","Shuruq":"05:37","Dhuhur":"12:55","Asr":"16:48","Maghrib":"20:17","Isha":"22:51"},
"19": {"Fajr":"02:43","Shuruq":"05:34","Dhuhur":"12:55","Asr":"16:49","Maghrib":"20:20","Isha":"22:52"},
"20": {"Fajr":"02:41","Shuruq":"05:31","Dhuhur":"12:55","Asr":"16:50","Maghrib":"20:22","Isha":"22:53"},
"21": {"Fajr":"02:40","Shuruq":"05:28","Dhuhur":"12:55","Asr":"16:51","Maghrib":"20:24","Isha":"22:54"},
"22": {"Fajr":"02:39","Shuruq":"05:26","Dhuhur":"12:54","Asr":"16:53","Maghrib":"20:27","Isha":"22:55"},
"23": {"Fajr":"02:38","Shuruq":"05:23","Dhuhur":"12:54","Asr":"16:54","Maghrib":"20:29","Isha":"22:56"},
"24": {"Fajr":"02:37","Shuruq":"05:20","Dhuhur":"12:54","Asr":"16:55","Maghrib":"20:31","Isha":"22:57"},
"25": {"Fajr":"02:36","Shuruq":"05:18","Dhuhur":"12:54","Asr":"16:56","Maghrib":"20:34","Isha":"22:58"},
"26": {"Fajr":"02:34","Shuruq":"05:15","Dhuhur":"12:54","Asr":"16:57","Maghrib":"20:36","Isha":"22:59"},
"27": {"Fajr":"02:33","Shuruq":"05:12","Dhuhur":"12:54","Asr":"16:58","Maghrib":"20:38","Isha":"23:00"},
"28": {"Fajr":"02:32","Shuruq":"05:10","Dhuhur":"12:53","Asr":"16:59","Maghrib":"20:41","Isha":"23:01"},
"29": {"Fajr":"02:31","Shuruq":"05:07","Dhuhur":"12:53","Asr":"17:00","Maghrib":"20:43","Isha":"23:01"},
"30": {"Fajr":"02:30","Shuruq":"05:05","Dhuhur":"12:53","Asr":"17:01","Maghrib":"20:45","Isha":"23:02"}
}