{
"1": {"Fajr":"02:20","Shuruq":"04:51","Dhuhur":"12:46","Asr":"16:55","Maghrib":"20:44","Isha":"22:57"},
"2": {"Fajr":"02:19","Shuruq":"04:48","Dhuhur":"12:45","Asr":"16:56","Maghrib":"20:46","Isha":"22:58"},
"3": {"Fajr":"02:18","Shuruq":"04:46","Dhuhur":"12:45","Asr":"16:57","Maghrib":"20:48","Isha":"22:59"},
"4": {"Fajr":"02:17","Shuruq":"04:43","Dhuhur":"12:45","Asr":"16:58","Maghrib":"20:51","Isha":"23:00"},
"5": {"Fajr":"02:16","Shuruq":"04:41","Dhuhur":"12:45","Asr":"16:59","Maghrib":"20:53","Isha":"23:01"},
"6": {"Fajr":"02:15","Shuruq":"04:38","Dhuhur":"12:45","Asr":"17:00","Maghrib":"20:56","Isha":"23:02"},
"7": {"Fajr":"02:14","Shuruq":"04:36","Dhuhur":"12:45","Asr":"17:01","Maghrib":"20:58","Isha":"23:03"},
"8": {"Fajr":"02:13","Shuruq":"04:33","Dhuhur":"12:45","Asr":"17:02","Maghrib":"21:00","Isha":"23:04"},
"9": {"Fajr":"02:12","Shuruq":"04:31","Dhuhur":"12:45","Asr":"17:03","Maghrib":"21:03","Isha":"23:05"},
"10": {"Fajr":"02:11","Shuruq":"04:28","Dhuhur":"12:45","Asr":"17:04","Maghrib":"21:05","Isha":"23:06"},
"11": {"Fajr":"02:10","Shuruq":"04:26","Dhuhur":"12:45","Asr":"17:05","Maghrib":"21:07","Isha":"23:07"},
"12": {"Fajr":"02:09","Shuruq":"04:23","Dhuhur":"12:45","Asr":"17:06","Maghrib":"21:10","Isha":"23:08"},
"13": {"Fajr":"02:08","Shuruq":"04:21","Dhuhur":"12:45","Asr":"17:07","Maghrib":"21:12","Isha":"23:09"},
"14": {"Fajr":"02:07","Shuruq":"04:19","Dhuhur":"12:45","Asr":"17:07","Maghrib":"21:14","Isha":"23:10"},
"15": {"Fajr":"02:06","Shuruq":"04:16","Dhuhur":"12:45","Asr":"17:08","Maghrib":"21:16","Isha":"23:11"},
"16": {"Fajr":"02:05","Shuruq":"04:14","Dhuhur":"12:45","Asr":"17:09","Maghrib":"21:19","Isha":"23:12"},
"17": {"Fajr":"02:05","Shuruq":"04:12","Dhuhur":"12:45","Asr":"17:10","Maghrib":"21:21","Isha":"23:13"},
"18": {"Fajr":"02:04","Shuruq":"04:10","Dhuhur":"12:45","Asr":"17:11","Maghrib":"21:23","Isha":"23:14"},
"19": {"Fajr":"02:03","Shuruq":"04:08","Dhuhur":"12:45","Asr":"17:12","Maghrib":"21:25","Isha":"23:15"},
"20": {"Fajr":"02:02","Shuruq":"04:06","Dhuhur":"12:45","Asr":"17:13","Maghrib":"21:28","Isha":"23:16"},
"21": {"Fajr":"02:01","Shuruq":"04:04","Dhuhur":"12:45","Asr":"17:13","Maghrib":"21:30","Isha":"23:17"},
"22": {"Fajr":"02:01","Shuruq":"04:01","Dhuhur":"12:45","Asr":"17:14","Maghrib":"21:32","Isha":"23:18"},
"23": {"Fajr":"02:00","Shuruq":"04:00","Dhuhur":"12:45","Asr":"17:15","Maghrib":"21:34","Isha":"23:19"},
"24": {"Fajr":"01:59","Shuruq":"03:58","Dhuhur":"12:45","Asr":"17:16","Maghrib":"21:36","Isha":"23:20"},
"25": {"Fajr":"01:59","Shuruq":"03:56","Dhuhur":"12:45","Asr":"17:16","Maghrib":"21:38","Isha":"23:21"},
"26": {"Fajr":"01:58","Shuruq":"03:54","Dhuhur":"12:45","Asr":"17:17","Maghrib":"21:40","Isha":"23:22"},
"27": {"Fajr":"01:57","Shuruq":"03:52","Dhuhur":"12:45","Asr":"17:18","Maghrib":"21:42","Isha":"23:23"},
"28": {"Fajr":"01:57","Shuruq":"03:50","Dhuhur":"12:45","Asr":"17:19","Maghrib":"21:44","Isha":"23:24"},
"29": {"Fajr":"01:56","Shuruq":"03:49","Dhuhur":"12:46","Asr":"17:19","Maghrib":"21:46","Isha":"23:25"},
"30": {"Fajr":"01:56","Shuruq":"03:47","Dhuhur":"12:46","Asr":"17:20","Maghrib":"21:48","Isha":"23:26"},
"31": {"Fajr":"01:55","Shuruq":"03:46","Dhuhur":"12:46","Asr":"17:21","Maghrib":"21:49","Isha":"23:26"}
}