{
"1": {"Fajr":"04:36","Shuruq":"07:23","Dhuhur":"11:20","Asr":"12:45","Maghrib":"15:19","Isha":"17:55"},
"2": {"Fajr":"04:39","Shuruq":"07:26","Dhuhur":"11:20","Asr":"12:43","Maghrib":"15:15","Isha":"17:52"},
"3": {"Fajr":"04:41","Shuruq":"07:30","Dhuhur":"11:20","Asr":"12:40","Maghrib":"15:12","Isha":"17:50"},
"4": {"Fajr":"04:44","Shuruq":"07:33","Dhuhur":"11:20","Asr":"12:38","Maghrib":"15:09","Isha":"17:47"},
"5": {"Fajr":"04:46","Shuruq":"07:36","Dhuhur":"11:20","Asr":"12:36","Maghrib":"15:05","Isha":"17:45"},
"6": {"Fajr":"04:49","Shuruq":"07:40","Dhuhur":"11:20","Asr":"12:34","Maghrib":"15:02","Isha":"17:42"},
"7": {"Fajr":"04:52","Shuruq":"07:43","Dhuhur":"11:20","Asr":"12:32","Maghrib":"14:59","Isha":"17:40"},
"8": {"Fajr":"04:54","Shuruq":"07:47","Dhuhur":"11:20","Asr":"12:30","Maghrib":"14:55","Isha":"17:38"},
"9": {"Fajr":"04:56","Shuruq":"07:50","Dhuhur":"11:21","Asr":"12:28","Maghrib":"14:52","Isha":"17:35"},
"10": {"Fajr":"04:59","Shuruq":"07:53","Dhuhur":"11:21","Asr":"12:26","Maghrib":"14:49","Isha":"17:33"},
"11": {"Fajr":"05:01","Shuruq":"07:57","Dhuhur":"11:21","Asr":"12:24","Maghrib":"14:46","Isha":"17:31"},
"12": {"Fajr":"05:04","Shuruq":"08:00","Dhuhur":"11:21","Asr":"12:22","Maghrib":"14:43","Isha":"17:29"},
"13": {"Fajr":"05:06","Shuruq":"08:04","Dhuhur":"11:21","Asr":"12:20","Maghrib":"14:40","Isha":"17:27"},
"14": {"Fajr":"05:08","Shuruq":"08:07","Dhuhur":"11:21","Asr":"12:18","Maghrib":"14:36","Isha":"17:25"},
"15": {"Fajr":"05:11","Shuruq":"08:10","Dhuhur":"11:21","Asr":"12:16","Maghrib":"14:33","Isha":"17:23"},
"16": {"Fajr":"05:13","Shuruq":"08:14","Dhuhur":"11:22","Asr":"12:14","Maghrib":"14:30","Isha":"17:21"},
"17": {"Fajr":"05:15","Shuruq":"08:17","Dhuhur":"11:22","Asr":"12:13","Maghrib":"14:27","Isha":"17:19"},
"18": {"Fajr":"05:17","Shuruq":"08:21","Dhuhur":"11:22","Asr":"12:11","Maghrib":"14:24","Isha":"17:17"},
"19": {"Fajr":"05:20","Shuruq":"08:24","Dhuhur":"11:22","Asr":"12:09","Maghrib":"14:21","Isha":"17:15"},
"20": {"Fajr":"05:22","Shuruq":"08:27","Dhuhur":"11:22","Asr":"12:08","Maghrib":"14:19","Isha":"17:14"},
"21": {"Fajr":"05:24","Shuruq":"08:31","Dhuhur":"11:23","Asr":"12:06","Maghrib":"14:16","Isha":"17:12"},
"22": {"Fajr":"05:26","Shuruq":"08:34","Dhuhur":"11:23","Asr":"12:05","Maghrib":"14:13","Isha":"17:10"},
"23": {"Fajr":"05:28","Shuruq":"08:37","Dhuhur":"11:23","Asr":"12:04","Maghrib":"14:10","Isha":"17:09"},
"24": {"Fajr":"05:30","Shuruq":"08:41","Dhuhur":"11:23","Asr":"12:02","Maghrib":"14:07","Isha":"17:07"},
"25": {"Fajr":"05:32","Shuruq":"08:44","Dhuhur":"11:24","Asr":"12:01","Maghrib":"14:05","Isha":"17:06"},
"26": {"Fajr":"05:34","Shuruq":"08:47","Dhuhur":"11:24","Asr":"12:00","Maghrib":"14:02","Isha":"17:05"},
"27": {"Fajr":"05:36","Shuruq":"08:50","Dhuhur":"11:24","Asr":"11:59","Maghrib":"14:00","Isha":"17:04"},
"28": {"Fajr":"05:37","Shuruq":"08:54","Dhuhur":"11:25","Asr":"11:58","Maghrib":"13:57","Isha":"17:02"},
"29": {"Fajr":"05:39","Shuruq":"08:57","Dhuhur":"11:25","Asr":"11:56","Maghrib":"13:55","Isha":"17:01"},
"30": {"Fajr":"05:41","Shuruq":"09:00","Dhuhur":"11:25","Asr":"11:55","Maghrib":"13:53","Isha":"17:00"}
}