{
"1": {"Fajr":"02:47","Shuruq":"05:27","Dhuhur":"13:06","Asr":"17:12","Maghrib":"20:48","Isha":"23:10"},
"2": {"Fajr":"02:46","Shuruq":"05:25","Dhuhur":"13:06","Asr":"17:13","Maghrib":"20:50","Isha":"23:11"},
"3": {"Fajr":"02:45","Shuruq":"05:23","Dhuhur":"13:05","Asr":"17:13","Maghrib":"20:51","Isha":"23:12"},
"4": {"Fajr":"02:44","Shuruq":"05:21","Dhuhur":"13:05","Asr":"17:14","Maghrib":"20:53","Isha":"23:13"},
"5": {"Fajr":"02:43","Shuruq":"05:18","Dhuhur":"13:05","Asr":"17:15","Maghrib":"20:55","Isha":"23:14"},
"6": {"Fajr":"02:42","Shuruq":"05:16","Dhuhur":"13:05","Asr":"17:16","Maghrib":"20:57","Isha":"23:14"},
"7": {"Fajr":"02:41","Shuruq":"05:14","Dhuhur":"13:05","Asr":"17:17","Maghrib":"20:59","Isha":"23:15"},
"8": {"Fajr":"02:40","Shuruq":"05:12","Dhuhur":"13:05","Asr":"17:17","Maghrib":"21:01","Isha":"23:16"},
"9": {"Fajr":"02:39","Shuruq":"05:10","Dhuhur":"13:05","Asr":"17:18","Maghrib":"21:03","Isha":"23:17"},
"10": {"Fajr":"02:39","Shuruq":"05:08","Dhuhur":"13:05","Asr":"17:19","Maghrib":"21:05","Isha":"23:18"},
"11": {"Fajr":"02:38","Shuruq":"05:06","Dhuhur":"13:05","Asr":"17:20","Maghrib":"21:07","Isha":"23:18"},
"12": {"Fajr":"02:37","Shuruq":"05:04","Dhuhur":"13:05","Asr":"17:21","Maghrib":"21:09","Isha":"23:19"},
"13": {"Fajr":"02:36","Shuruq":"05:02","Dhuhur":"13:05","Asr":"17:21","Maghrib":"21:11","Isha":"23:20"},
"14": {"Fajr":"02:36","Shuruq":"05:00","Dhuhur":"13:05","Asr":"17:22","Maghrib":"21:13","Isha":"23:21"},
"15": {"Fajr":"02:35","Shuruq":"04:58","Dhuhur":"13:05","Asr":"17:23","Maghrib":"21:14","Isha":"23:22"},
"16": {"Fajr":"02:34","Shuruq":"04:57","Dhuhur":"13:05","Asr":"17:24","Maghrib":"21:16","Isha":"23:23"},
"17": {"Fajr":"02:33","Shuruq":"04:55","Dhuhur":"13:05","Asr":"17:24","Maghrib":"21:18","Isha":"23:23"},
"18": {"Fajr":"02:33","Shuruq":"04:53","Dhuhur":"13:05","Asr":"17:25","Maghrib":"21:20","Isha":"23:24"},
"19": {"Fajr":"02:32","Shuruq":"04:51","Dhuhur":"13:05","Asr":"17:26","Maghrib":"21:22","Isha":"23:25"},
"20": {"Fajr":"02:32","Shuruq":"04:50","Dhuhur":"13:05","Asr":"17:26","Maghrib":"21:23","Isha":"23:26"},
"21": {"Fajr":"02:31","Shuruq":"04:48","Dhuhur":"13:05","Asr":"17:27","Maghrib":"21:25","Isha":"23:26"},
"22": {"Fajr":"02:30","Shuruq":"04:47","Dhuhur":"13:05","Asr":"17:28","Maghrib":"21:27","Isha":"23:27"},
"23": {"Fajr":"02:30","Shuruq":"04:45","Dhuhur":"13:05","Asr":"17:28","Maghrib":"21:29","Isha":"23:28"},
"24": {"Fajr":"02:29","Shuruq":"04:43","Dhuhur":"13:05","Asr":"17:29","Maghrib":"21:30","Isha":"23:29"},
"25": {"Fajr":"02:29","Shuruq":"04:42","Dhuhur":"13:05","Asr":"17:30","Maghrib":"21:32","Isha":"23:30"},
"26": {"Fajr":"02:28","Shuruq":"04:41","Dhuhur":"13:05","Asr":"17:30","Maghrib":"21:33","Isha":"23:30"},
"27": {"Fajr":"02:28","Shuruq":"04:39","Dhuhur":"13:06","Asr":"17:31","Maghrib":"21:35","Isha":"23:31"},
"28": {"Fajr":"02:27","Shuruq":"04:38","Dhuhur":"13:06","Asr":"17:31","Maghrib":"21:36","Isha":"23:32"},
"29": {"Fajr":"02:27","Shuruq":"04:37","Dhuhur":"13:06","Asr":"17:32","Maghrib":"21:38","Isha":"23:32"},
"30": {"Fajr":"02:27","Shuruq":"04:35","Dhuhur":"13:06","Asr":"17:33","Maghrib":"21:39","Isha":"23:33"},
"31": {"Fajr":"02:26","Shuruq":"04:34","Dhuhur":"13:06","Asr":"17:33","Maghrib":"21:41","Isha":"23:34"}
}