{
"1": {"Fajr":"05:07","Shuruq":"07:08","Dhuhur":"12:58","Asr":"15:59","Maghrib":"18:49","Isha":"20:42"},
"2": {"Fajr":"05:09","Shuruq":"07:10","Dhuhur":"12:58","Asr":"15:57","Maghrib":"18:47","Isha":"20:40"},
"3": {"Fajr":"05:11","Shuruq":"07:12","Dhuhur":"12:58","Asr":"15:55","Maghrib":"18:44","Isha":"20:37"},
"4": {"Fajr":"05:13","Shuruq":"07:14","Dhuhur":"12:57","Asr":"15:53","Maghrib":"18:42","Isha":"20:34"},
"5": {"Fajr":"05:16","Shuruq":"07:16","Dhuhur":"12:57","Asr":"15:51","Maghrib":"18:39","Isha":"20:31"},
"6": {"Fajr":"05:18","Shuruq":"07:18","Dhuhur":"12:57","Asr":"15:49","Maghrib":"18:36","Isha":"20:29"},
"7": {"Fajr":"05:20","Shuruq":"07:20","Dhuhur":"12:57","Asr":"15:47","Maghrib":"18:34","Isha":"20:26"},
"8": {"Fajr":"05:22","Shuruq":"07:22","Dhuhur":"12:56","Asr":"15:45","Maghrib":"18:31","Isha":"20:23"},
"9": {"Fajr":"05:24","Shuruq":"07:24","Dhuhur":"12:56","Asr":"15:43","Maghrib":"18:29","Isha":"20:21"},
"10": {"Fajr":"05:26","Shuruq":"07:26","Dhuhur":"12:56","Asr":"15:41","Maghrib":"18:26","Isha":"20:18"},
"11": {"Fajr":"05:28","Shuruq":"07:28","Dhuhur":"12:55","Asr":"15:39","Maghrib":"18:24","Isha":"20:16"},
"12": {"Fajr":"05:30","Shuruq":"07:30","Dhuhur":"12:55","Asr":"15:37","Maghrib":"18:21","Isha":"20:13"},
"13": {"Fajr":"05:32","Shuruq":"07:32","Dhuhur":"12:55","Asr":"15:35","Maghrib":"18:19","Isha":"20:11"},
"14": {"Fajr":"05:34","Shuruq":"07:34","Dhuhur":"12:55","Asr":"15:34","Maghrib":"18:16","Isha":"20:08"},
"15": {"Fajr":"05:36","Shuruq":"07:36","Dhuhur":"12:54","Asr":"15:32","Maghrib":"18:14","Isha":"20:06"},
"16": {"Fajr":"05:38","Shuruq":"07:38","Dhuhur":"12:54","Asr":"15:30","Maghrib":"18:11","Isha":"20:03"},
"17": {"Fajr":"05:40","Shuruq":"07:40","Dhuhur":"12:54","Asr":"15:28","Maghrib":"18:09","Isha":"20:01"},
"18": {"Fajr":"05:42","Shuruq":"07:42","Dhuhur":"12:54","Asr":"15:26","Maghrib":"18:06","Isha":"19:58"},
"19": {"Fajr":"05:44","Shuruq":"07:44","Dhuhur":"12:54","Asr":"15:24","Maghrib":"18:04","Isha":"19:56"},
"20": {"Fajr":"05:46","Shuruq":"07:46","Dhuhur":"12:53","Asr":"15:22","Maghrib":"18:02","Isha":"19:54"},
"21": {"Fajr":"05:48","Shuruq":"07:48","Dhuhur":"12:53","Asr":"15:20","Maghrib":"17:59","Isha":"19:52"},
"22": {"Fajr":"05:50","Shuruq":"07:50","Dhuhur":"12:53","Asr":"15:19","Maghrib":"17:57","Isha":"19:49"},
"23": {"Fajr":"05:52","Shuruq":"07:53","Dhuhur":"12:53","Asr":"15:17","Maghrib":"17:54","Isha":"19:47"},
"24": {"Fajr":"05:54","Shuruq":"07:55","Dhuhur":"12:53","Asr":"15:15","Maghrib":"17:52","Isha":"19:45"},
"25": {"Fajr":"05:55","Shuruq":"07:57","Dhuhur":"12:53","Asr":"15:13","Maghrib":"17:50","Isha":"19:43"},
"26": {"Fajr":"05:57","Shuruq":"07:59","Dhuhur":"12:53","Asr":"15:11","Maghrib":"17:48","Isha":"19:41"},
"27": {"Fajr":"05:59","Shuruq":"08:01","Dhuhur":"12:52","Asr":"15:10","Maghrib":"17:45","Isha":"19:39"},
"28": {"Fajr":"06:01","Shuruq":"08:03","Dhuhur":"12:52","Asr":"15:08","Maghrib":"17:43","Isha":"19:37"},
"29": {"Fajr":"05:05","Shuruq":"07:07","Dhuhur":"11:52","Asr":"14:04","Maghrib":"16:39","Isha":"18:33"},
"30": {"Fajr":"05:07","Shuruq":"07:09","Dhuhur":"11:52","Asr":"14:03","Maghrib":"16:36","Isha":"18:31"},
"31": {"Fajr":"05:08","Shuruq":"07:11","Dhuhur":"11:52","Asr":"14:01","Maghrib":"16:34","Isha":"18:29"}
}