{
"1": {"Fajr":"04:44","Shuruq":"04:44","Dhuhur":"12:10","Asr":"14:52","Maghrib":"17:35","Isha":"19:30"},
"2": {"Fajr":"04:41","Shuruq":"04:41","Dhuhur":"12:10","Asr":"14:53","Maghrib":"17:37","Isha":"19:32"},
"3": {"Fajr":"04:38","Shuruq":"04:38","Dhuhur":"12:10","Asr":"14:55","Maghrib":"17:40","Isha":"19:34"},
"4": {"Fajr":"04:36","Shuruq":"04:36","Dhuhur":"12:10","Asr":"14:56","Maghrib":"17:42","Isha":"19:37"},
"5": {"Fajr":"04:33","Shuruq":"04:33","Dhuhur":"12:10","Asr":"14:58","Maghrib":"17:44","Isha":"19:39"},
"6": {"Fajr":"04:30","Shuruq":"04:30","Dhuhur":"12:09","Asr":"14:59","Maghrib":"17:46","Isha":"19:41"},
"7": {"Fajr":"04:28","Shuruq":"04:28","Dhuhur":"12:09","Asr":"15:01","Maghrib":"17:48","Isha":"19:43"},
"8": {"Fajr":"04:25","Shuruq":"04:25","Dhuhur":"12:09","Asr":"15:02","Maghrib":"17:50","Isha":"19:45"},
"9": {"Fajr":"04:22","Shuruq":"04:22","Dhuhur":"12:09","Asr":"15:04","Maghrib":"17:52","Isha":"19:48"},
"10": {"Fajr":"04:19","Shuruq":"04:19","Dhuhur":"12:08","Asr":"15:05","Maghrib":"17:54","Isha":"19:50"},
"11": {"Fajr":"04:16","Shuruq":"04:16","Dhuhur":"12:08","Asr":"15:06","Maghrib":"17:56","Isha":"19:52"},
"12": {"Fajr":"04:13","Shuruq":"04:13","Dhuhur":"12:08","Asr":"15:08","Maghrib":"17:59","Isha":"19:55"},
"13": {"Fajr":"04:11","Shuruq":"04:11","Dhuhur":"12:08","Asr":"15:09","Maghrib":"18:01","Isha":"19:57"},
"14": {"Fajr":"04:08","Shuruq":"04:08","Dhuhur":"12:07","Asr":"15:11","Maghrib":"18:03","Isha":"19:59"},
"15": {"Fajr":"04:05","Shuruq":"04:05","Dhuhur":"12:07","Asr":"15:12","Maghrib":"18:05","Isha":"20:02"},
"16": {"Fajr":"04:02","Shuruq":"04:02","Dhuhur":"12:07","Asr":"15:13","Maghrib":"18:07","Isha":"20:04"},
"17": {"Fajr":"03:59","Shuruq":"03:59","Dhuhur":"12:06","Asr":"15:15","Maghrib":"18:09","Isha":"20:06"},
"18": {"Fajr":"03:55","Shuruq":"03:55","Dhuhur":"12:06","Asr":"15:16","Maghrib":"18:11","Isha":"20:09"},
"19": {"Fajr":"03:52","Shuruq":"03:52","Dhuhur":"12:06","Asr":"15:17","Maghrib":"18:13","Isha":"20:11"},
"20": {"Fajr":"03:49","Shuruq":"03:49","Dhuhur":"12:06","Asr":"15:18","Maghrib":"18:15","Isha":"20:14"},
"21": {"Fajr":"03:46","Shuruq":"03:46","Dhuhur":"12:05","Asr":"15:20","Maghrib":"18:17","Isha":"20:16"},
"22": {"Fajr":"03:43","Shuruq":"03:43","Dhuhur":"12:05","Asr":"15:21","Maghrib":"18:19","Isha":"20:19"},
"23": {"Fajr":"03:40","Shuruq":"03:40","Dhuhur":"12:05","Asr":"15:22","Maghrib":"18:21","Isha":"20:21"},
"24": {"Fajr":"03:36","Shuruq":"03:36","Dhuhur":"12:04","Asr":"15:24","Maghrib":"18:23","Isha":"20:24"},
"25": {"Fajr":"03:33","Shuruq":"03:33","Dhuhur":"12:04","Asr":"15:25","Maghrib":"18:25","Isha":"20:27"},
"26": {"Fajr":"04:33","Shuruq":"04:33","Dhuhur":"13:04","Asr":"16:25","Maghrib":"19:25","Isha":"21:26"},
"27": {"Fajr":"04:30","Shuruq":"04:30","Dhuhur":"13:04","Asr":"16:26","Maghrib":"19:28","Isha":"21:29"},
"28": {"Fajr":"04:27","Shuruq":"04:27","Dhuhur":"13:03","Asr":"16:27","Maghrib":"19:30","Isha":"21:32"},
"29": {"Fajr":"04:23","Shuruq":"04:23","Dhuhur":"13:03","Asr":"16:28","Maghrib":"19:32","Isha":"21:34"},
"30": {"Fajr":"04:20","Shuruq":"04:20","Dhuhur":"13:03","Asr":"16:30","Maghrib":"19:34","Isha":"21:37"},
"31": {"Fajr":"04:16","Shuruq":"04:16","Dhuhur":"13:03","Asr":"16:31","Maghrib":"19:36","Isha":"21:40"}
}